**************************************** . ****************************************
1.HTML

{"note11a": ["Jacob 4:4", "7:11 (1112)", "Mosiah 13:33 (3335)", "D&C 20:26"], "note11c": ["D&C 58:3 (34)"], "note11b": ["Heb. 12:2"], "note8a": ["John 20:29"], "note23a": ["TGHoly Ghost, Baptism of"], "note23b": ["TGSteadfastness"], "note21b": ["Gal. 5:5 (56)", "1Pet. 1:5 (38)"], "note21c": ["TGHope"], "note21a": ["Acts 3:13 (1315)"], "note6a": ["TGProbation"], "note6b": ["TGTemptation"], "note25a": ["Ps. 119:89"], "note19a": ["TGJesus Christ, Atonement through"], "note19c": ["Lev. 1:3", "3:6", "22:20", "Deut. 15:21"], "note4a": ["Matt. 6:20", "1Cor. 9:25 (2425)", "Col. 1:5"], "note1a": ["TGStranger"], "note7a": ["TGOpposition", "Test"], "note3b": ["TGHoly Ghost, Baptism of", "Man, New, Spiritually Reborn"], "note3a": ["TGGod, Mercy of"], "note3e": ["1Cor. 15:20"], "note3d": ["TGHope"], "note15a": ["1Thes. 2:12"], "note15b": ["2Pet. 3:11", "D&C 136:24 (2324)"], "note17b": ["TGReverence"], "note17a": ["TGGood Works"], "note13c": ["TGGrace"], "note13a": ["TGLevity"], "note19b": ["TGJesus Christ, Lamb of God", "Jesus Christ, Types of, in Anticipation", "Passover"], "note10b": ["Matt. 13:17", "Luke 24:27 (2627)", "Heb. 11:13", "2Pet. 3:2"], "note10a": ["TGSalvation"], "note22d": ["TGLove"], "note9c": ["Heb. 10:36"], "note9b": ["D&C 76:51 (5170)"], "note22c": ["Moro. 8:26 (2526)"], "note22b": ["TGSoul"], "note22a": ["TGPurification", "Purity"], "note24a": ["TGMortality"], "note18c": ["TGTraditions of Men"], "note18a": ["1Cor. 6:20", "TGJesus Christ, Redeemer"], "note5a": ["Rom. 1:16"], "note5b": ["Heb. 10:22 (2224)", "1Pet. 1:21 (2122)"], "note2d": ["TGObedience"], "note2e": ["Isa. 52:15"], "note2f": ["Ex. 24:8 (58)", "Heb. 12:24"], "note2a": ["John 6:44 (44, 6365)", "TGElection"], "note2b": ["TGForeordination", "God, Foreknowledge of"], "note2c": ["TGSanctification"], "note20b": ["TGForeordination", "Jesus Christ, Authority of", "Jesus Christ, Foreordained", "Salvation, Plan of"], "note16a": ["1Jn. 3:3"], "note12a": ["TGHoly Ghost, Mission of"], "note12b": ["TGAngels"], "note14b": ["Acts 17:30 (2931)"], "note14a": ["TGLust"]}

2.HTML

{"note11e": ["TGWar"], "note11d": ["TGLust"], "note22b": ["TGGuile", "Sincere"], "note11a": ["TGStranger"], "note11c": ["TGAbstain"], "note8b": ["Isa. 28:16", "2Ne. 18:14 (1315)"], "note8c": ["TGRock"], "note24b": ["TGJesus Christ, Atonement through", "Jesus Christ, Redeemer"], "note8a": ["1Cor. 1:18 (1824)"], "note8f": ["Rom. 9:22 (923)", "1Thes. 5:9"], "note23a": ["Isa. 53:3 (36)", "TGJesus Christ, Trials of", "Retribution", "Reviling"], "note8d": ["TGOffense"], "note8e": ["Matt. 21:44 (3346)"], "note18b": ["Eph. 6:5 (58)"], "note21b": ["TGExample", "Jesus Christ, Exemplar"], "note21a": ["TGJesus Christ, Atonement through", "Redemption", "Self-Sacrifice"], "note25b": ["TGJesus Christ, Good Shepherd", "Shepherd"], "note6a": ["TGCornerstone"], "note6b": ["Isa. 28:16"], "note6c": ["3Ne. 11:39 (3740)"], "note4a": ["D&C 50:44"], "note1a": ["TGMalice"], "note1c": ["TGBackbiting", "Slander"], "note1b": ["TGGuile"], "note7b": ["Matt. 21:42 (4246)", "Luke 9:22"], "note7a": ["TGDisobedience"], "note3a": ["Heb. 6:5 (46)", "Alma 36:26 (2426)"], "note17d": ["TGCitizenship", "Kings, Earthly"], "note23b": ["TGCommitment"], "note15a": ["TGSilence"], "note20a": ["D&C 122:7 (78)"], "note15b": ["TGIgnorance"], "note17c": ["Prov. 24:21"], "note17b": ["TGBrotherhood and Sisterhood"], "note17a": ["TGRespect"], "note13b": ["TGGovernments"], "note13a": ["TGCitizenship", "Submissiveness"], "note19b": ["TGTribulation"], "note20c": ["Alma 12:24", "TGPatience"], "note9h": ["TGLight [noun]"], "note20b": ["TGForbear", "Suffering"], "note9a": ["TGElection"], "note9c": ["TGPriesthood", "Priesthood, Melchizedek"], "note9b": ["TGMission of Early Saints", "Mission of Latter-day Saints"], "note9e": ["TGNations"], "note9d": ["Ex. 19:6", "TGIsrael, Blessings of"], "note9g": ["TGWalking in Darkness"], "note9f": ["Ex. 19:5", "TGIsrael, Mission of", "Modesty", "Peculiar People"], "note25a": ["TGSheep"], "note22a": ["Isa. 53:9", "TGSin"], "note5e": ["TGJesus Christ, Types of, in Memory", "Sacrifice"], "note5d": ["TGPriesthood, Magnifying Callings within"], "note18a": ["Col. 3:22", "1Tim. 6:1 (12)", "Titus 2:9 (910)"], "note24a": ["TGAccountability", "Self-Sacrifice"], "note5c": ["Heb. 3:6"], "note5b": ["TGSpirituality"], "note25c": ["TGBishop"], "note24c": ["Isa. 53:5"], "note2a": ["TGMan, New, Spiritually Reborn"], "note2c": ["1Cor. 3:2 (23)", "Heb. 5:13 (1314)", "Mosiah 3:19"], "note16a": ["TGLiberty"], "note16b": ["TGMalice"], "note16c": ["TGServant"], "note12a": ["TGChildren of Light", "Honesty"], "note12b": ["Matt. 5:16 (1416)", "Titus 2:8"]}

4.HTML

{"note11a": ["1Thes. 2:4", "Titus 2:1"], "note11b": ["TGAuthority", "Teaching with the Spirit"], "note8b": ["TGCharity"], "note8a": ["JST1Pet. 4:8"], "note6a": ["JST1Pet. 4:6"], "note6b": ["TGGospel"], "note6c": ["TGGenealogy and Temple Work"], "note6d": ["TGHell", "Salvation, Plan of", "Salvation for the Dead", "Spirits, Disembodied", "Spirits in Prison"], "note6e": ["D&C 88:99", "138:10, 34"], "note19b": ["TGRefuge"], "note1c": ["TGSin"], "note7b": ["TGWatch"], "note3c": ["TGDevil, Church of"], "note3b": ["TGRioting and Reveling"], "note3a": ["TGTemperance"], "note3d": ["TGIdolatry"], "note17b": ["D&C 18:46", "TGDisobedience"], "note17a": ["TGJudgment"], "note13c": ["TGSuffering"], "note13b": ["TGPersecution"], "note13a": ["Acts 5:41"], "note13d": ["D&C 66:2"], "note10b": ["TGStewardship"], "note10a": ["TGPriesthood, Magnifying Callings within"], "note9a": ["TGHospitality"], "note9b": ["TGMotivations"], "note18b": ["TGGodliness"], "note18a": ["TGRighteousness"], "note5a": ["TGJesus Christ, Judge"], "note2a": ["TGLust"], "note16a": ["Acts 11:26 (1926)"], "note19a": ["TGGod, Will of"], "note12a": ["TGTest"], "note14b": ["TGHappiness"], "note14a": ["TGReproach"]}

5.HTML

{"note8b": ["TGWatch"], "note8c": ["TGDevil"], "note8a": ["TGLevity"], "note6a": ["TGContrite Heart"], "note4b": ["Luke 12:44", "TGExaltation"], "note4c": ["D&C 66:12"], "note4a": ["TGJesus Christ, Good Shepherd", "Shepherd"], "note1a": ["TGElder, Melchizedek Priesthood", "Leadership"], "note1b": ["D&C 66:2", "93:22"], "note3b": ["TGExample"], "note3a": ["D&C 121:41 (4142)"], "note13a": ["TGBabylon"], "note10b": ["TGWorthiness"], "note10a": ["TGGrace"], "note9a": ["TGPerseverance", "Steadfastness"], "note5e": ["TGPoor in Spirit"], "note5d": ["TGPride"], "note5a": ["TGRespect", "Submissiveness"], "note5b": ["TGHumility"], "note2d": ["TGInitiative"], "note2e": ["TGFilthiness"], "note2f": ["TGPriestcraft"], "note2a": ["John 21:16 (1516)"], "note2b": ["TGChurch"], "note12a": ["Acts 15:34 (3234)", "2Cor. 1:19", "1Thes. 1:1"]}

3.HTML

{"note22b": ["TGAngels"], "note11b": ["TGPeacemakers", "Peace of God"], "note8b": ["TGCompassion", "Kindness", "Welfare"], "note8c": ["TGBrotherhood and Sisterhood"], "note8a": ["TGUnity"], "note8e": ["TGCourtesy"], "note21a": ["TGBaptism", "Baptism, Essential"], "note6a": ["TGSeed of Abraham"], "note19a": ["TGGenealogy and Temple Work", "Preaching"], "note19c": ["Luke 1:79 (7779)", "D&C 138:8 (510, 18)", "TGHell"], "note4a": ["TGBeauty"], "note1a": ["TGFamily, Love within", "Marriage, Wives"], "note7f": ["TGPrayer"], "note7e": ["TGMarriage, Celestial"], "note1b": ["TGDisobedience"], "note7c": ["TGMarriage, Continuing Courtship in"], "note7b": ["D&C 121:42"], "note7a": ["TGFamily", "Marriage, Husbands"], "note3a": ["TGApparel", "Modesty"], "note20a": ["JST1Pet. 3:20"], "note15c": ["TGHope"], "note15d": ["TGMeek"], "note17a": ["TGSelf-Sacrifice"], "note13a": ["TGCommitment"], "note19b": ["TGSalvation for the Dead", "Spirit Body", "Spirits, Disembodied", "Spirits in Prison"], "note20c": ["TGForbear"], "note10b": ["TGGossip", "Slander"], "note10c": ["TGGuile"], "note10a": ["TGSelf-Mastery"], "note9a": ["TGRetribution"], "note22c": ["Col. 1:16", "2:10", "TGAuthority"], "note9c": ["TGBlessing"], "note9b": ["TGForbear"], "note20e": ["Gen. 8:1", "Heb. 11:7", "2Pet. 2:5"], "note20d": ["Gen. 7:1", "TGEarth, Cleansing of"], "note22a": ["John 7:34"], "note20f": ["TGFlood"], "note7d": ["TGMarriage, Wives", "Woman"], "note18b": ["TGInjustice"], "note18c": ["TGDeath", "Jesus Christ, Death of"], "note18a": ["TGJesus Christ, Atonement through", "Jesus Christ, Redeemer", "Pain", "Redemption"], "note5a": ["TGWoman"], "note18d": ["TGGod, Spirit of"], "note5b": ["TGTrust in God"], "note14b": ["TGRighteousness"], "note20b": ["TGDisobedience"], "note2a": ["TGChastity"], "note16a": ["TGConscience"], "note12a": ["Ps. 33:18", "TGAbundant Life", "Reward"], "note12b": ["TGRighteousness"], "note12c": ["TGPrayer"], "note12d": ["TGEvil"], "note14c": ["TGHappiness"], "note14a": ["Luke 6:22", "James 1:12 (816)", "TGSuffering"]}

