**************************************** . ****************************************
1.HTML

{"note10a": ["Hosea 4:3", "D&C 43:25 (2425)", "87:6 (18)", "JSM 1:29"], "note20a": ["Joel 2:22 (2122)"], "note4b": ["Lev. 26:24 (1438)"], "note8a": ["Ezek. 16:32 (3238)"], "note2b": ["D&C 1:6"], "note15a": ["Jer. 46:10", "Amos 5:18", "TGDay of the Lord"], "note14b": ["TGSolemn Assembly"], "note19a": ["Zeph. 1:18", "2Ne. 6:15 (1415)", "Jacob 5:77", "6:3", "D&C 29:21", "45:41 (4041)", "97:26 (2526)"], "note12a": ["Isa. 24:11"], "note6a": ["Rev. 9:16"], "note6b": ["Rev. 9:8"], "note5a": ["Isa. 32:10"], "note13a": ["Jer. 4:8"], "note14a": ["TGFast, Fasting"]}

2.HTML

{"note11d": ["Mal. 3:2"], "note11a": ["D&C 35:21", "43:18 (1725)", "88:90", "133:50 (5052)"], "note11c": ["D&C 34:8"], "note11b": ["Jer. 30:7"], "note23a": ["Ps. 149:2", "D&C 84:56"], "note23b": ["Lev. 26:4 (34)"], "note23c": ["Deut. 11:14", "Zech. 10:1"], "note27a": ["TGGod, Presence of"], "note31a": ["Rev. 6:12"], "note6a": ["Jer. 8:21", "Nahum 2:10"], "note25a": ["Lev. 26:3 (314)", "2Ne. 1:20"], "note1c": ["TGDay of the Lord"], "note1b": ["Joel 3:17", "2Ne. 12:3 (24)", "30:15 (1218)"], "note30b": ["TGAstronomy", "Heaven"], "note3b": ["TGEden"], "note3a": ["D&C 29:21"], "note15a": ["TGSolemn Assembly"], "note17c": ["Jer. 24:9", "1Ne. 19:14", "3Ne. 16:9 (89)", "TGReproach"], "note17b": ["Ex. 33:13"], "note17a": ["Isa. 22:12", "2Cor. 7:10", "James 4:9 (810)"], "note13c": ["TGKindness"], "note13a": ["3Ne. 9:20", "D&C 64:34"], "note32e": ["TGZion"], "note13d": ["Gen. 6:6", "1Sam. 15:11", "2Sam. 24:16", "Ps. 135:14"], "note10b": ["D&C 43:18", "84:118"], "note10c": ["D&C 29:14", "45:42", "88:87", "133:49", "JSM 1:33"], "note10a": ["TGEarth, Destiny of"], "note10d": ["Isa. 13:10", "Ezek. 32:7", "Matt. 24:29"], "note20a": ["Ezek. 39:3 (25)"], "note20c": ["Isa. 34:3"], "note20b": ["Ezek. 47:18"], "note32h": ["TGIsrael, Remnant of"], "note22a": ["Joel 1:20"], "note30a": ["D&C 45:40", "TGLast Days"], "note26a": ["2Ne. 6:13 (7, 13)", "3Ne. 22:4"], "note30c": ["TGWorld, End of"], "note32c": ["TGJesus Christ, Savior", "Salvation"], "note32a": ["D&C 93:1", "100:17", "TGPrayer"], "note18a": ["Zech. 1:14", "3Ne. 20:46 (2936, 46)", "Ether 13:5 (5, 11)"], "note5a": ["Rev. 9:9"], "note32g": ["Obad. 1:17 (1517)"], "note32d": ["D&C 76:66"], "note5b": ["1Ne. 22:15 (15, 23)", "2Ne. 15:24", "26:6 (4, 6)", "D&C 64:24 (2324)", "133:64"], "note31b": ["TGDay of the Lord"], "note32i": ["TGIsrael, Gathering of"], "note2a": ["Ezek. 34:12 (1119)", "Amos 5:18 (1820)"], "note28a": ["JSH 1:41", "TGDispensations", "Restoration of the Gospel"], "note28c": ["TGHoly Ghost, Gifts of"], "note28b": ["TGGod, Spirit of", "Millennium, Preparing a People for"], "note28e": ["TGDream"], "note28d": ["TGOld Age"], "note28f": ["TGVision"], "note32f": ["TGJerusalem"], "note12a": ["2Chr. 30:6 (227)", "TGConversion"], "note12b": ["TGCommitment"], "note12c": ["TGFast, Fasting"]}

3.HTML

{"note11a": ["Isa. 13:3"], "note21a": ["Jer. 3:17", "Zech. 2:10 (1012)", "Rev. 22:3 (34)"], "note4b": ["Deut. 32:35"], "note4a": ["TGReward"], "note19a": ["Isa. 19:16 (1125)", "Ezek. 29:2", "Zech. 10:11"], "note17d": ["Zech. 14:21", "TGStranger"], "note15a": ["TGLast Days", "World, End of"], "note15b": ["2Ne. 23:10"], "note17c": ["TGJerusalem"], "note17b": ["Joel 2:1", "Zech. 8:3"], "note17a": ["TGMillennium"], "note13c": ["Rev. 14:19", "D&C 76:107"], "note13b": ["D&C 6:3", "101:64"], "note13a": ["Alma 26:5", "D&C 4:4"], "note10a": ["2Cor. 12:10", "Heb. 11:34", "Ether 12:27", "D&C 50:16"], "note9a": ["TGWar"], "note18b": ["Ezek. 47:1", "Zech. 14:8", "Rev. 22:1"], "note18a": ["TGEarth, Renewal of"], "note2a": ["Micah 4:11", "Zeph. 3:8"], "note2b": ["Isa. 66:16", "Jer. 25:31", "Ezek. 38:22"], "note2c": ["Isa. 19:25"], "note16d": ["D&C 133:21"], "note16e": ["D&C 21:6", "TGLast Days"], "note16f": ["TGHope"], "note16a": ["TGJesus Christ, Second Coming"], "note16b": ["Jer. 25:30"], "note16c": ["TGZion"], "note12a": ["TGHeathen"], "note12b": ["TGJesus Christ, Judge"], "note14b": ["Obad. 1:15"], "note14a": ["Zech. 14:2 (25)", "Rev. 16:16"]}

