**************************************** . ****************************************
1.HTML

{"note11d": ["Acts 5:41 (4041)", "TGJoy"], "note11a": ["Eph. 3:16"], "note11c": ["TGJesus Christ, Power of"], "note11b": ["TGGlory"], "note23d": ["TGHope"], "note23a": ["TGPerseverance"], "note23b": ["Eph. 3:17 (1719)"], "note23c": ["John 15:6"], "note27a": ["Eph. 3:3"], "note27b": ["TGTreasure"], "note21b": ["Eph. 2:1"], "note6b": ["Alma 32:42 (2842)", "3Ne. 14:16", "D&C 52:34 (18, 34)"], "note6c": ["TGGrace"], "note4b": ["Heb. 6:10"], "note4a": ["Eph. 1:15 (1215)", "1Thes. 5:8"], "note28a": ["TGPreaching"], "note25a": ["TGDispensations"], "note7a": ["Col. 4:12 (1213)", "Philem. 1:23"], "note19a": ["TGJesus Christ, Relationships with the Father"], "note15a": ["TGGod, Body of, Corporeal Nature"], "note20a": ["TGReconciliation"], "note15c": ["TGFirstborn", "Jesus Christ, Firstborn"], "note15b": ["TGGodhead"], "note17a": ["D&C 88:13 (513)"], "note13c": ["TGJesus Christ, Divine Sonship"], "note13b": ["TGKingdom of God, in Heaven"], "note13a": ["D&C 21:6", "38:11"], "note10b": ["TGWorthiness"], "note10c": ["1Thes. 4:1"], "note10a": ["TGWalking with God"], "note10d": ["TGEducation"], "note9a": ["TGKnowledge"], "note9c": ["TGUnderstanding"], "note9b": ["TGGod, Will of"], "note22b": ["Mosiah 3:21", "D&C 4:2"], "note22a": ["TGJesus Christ, Death of"], "note24a": ["2Cor. 1:5"], "note26b": ["2Tim. 1:10"], "note26a": ["Rom. 16:25 (2526)", "TGMysteries of Godliness"], "note18b": ["TGJesus Christ, Firstborn", "Jesus Christ, Resurrection"], "note18a": ["TGJesus Christ, Head of the Church"], "note5a": ["1Pet. 1:4"], "note5b": ["TGGospel"], "note16d": ["TGJesus Christ, Creator"], "note28b": ["TGWarn"], "note16a": ["Heb. 2:10 (910)"], "note16b": ["TGCreation"], "note16c": ["Col. 2:10", "1Pet. 3:22"], "note12a": ["Col. 3:17"], "note12c": ["2Ne. 9:18", "D&C 45:58 (5758)", "84:38 (3338)"], "note14b": ["TGRemission of Sins"], "note14a": ["TGJesus Christ, Atonement through", "Redemption"]}

2.HTML

{"note11a": ["TGCircumcision"], "note11b": ["Rom. 6:6"], "note8b": ["D&C 123:12", "TGLearn"], "note8c": ["TGDeceit", "Education", "Fraud"], "note8a": ["Heb. 13:9"], "note8d": ["TGTraditions of Men"], "note8e": ["TGWorldliness"], "note21a": ["JSTCol. 2:2122 (Appendix)"], "note6a": ["TGWalking with God"], "note19a": ["Eph. 4:15 (1516)"], "note1b": ["Col. 4:15 (1216)", "Rev. 1:11"], "note7b": ["TGThanksgiving"], "note7a": ["Eph. 3:17"], "note3c": ["TGKnowledge"], "note3b": ["1Cor. 2:7 (67)", "TGGod, Intelligence of", "God, Omniscience of"], "note3a": ["TGTreasure"], "note20a": ["Rom. 6:5 (25)", "Col. 3:3"], "note17a": ["TGJesus Christ, Types of, in Anticipation"], "note13a": ["TGResurrection"], "note10b": ["Col. 1:16", "1Pet. 3:22"], "note10a": ["John 1:16"], "note9a": ["TGJesus Christ, Relationships with the Father"], "note20b": ["TGOrdinance"], "note22b": ["Matt. 15:9", "2Ne. 28:9"], "note22a": ["Titus 1:14", "D&C 46:7", "JSH 1:19", "TGApostasy of the Early Christian Church"], "note18b": ["TGHumility"], "note18a": ["Matt. 24:4 (45)", "Mosiah 26:6", "D&C 123:12"], "note5a": ["TGOrder"], "note2a": ["TGUnderstanding"], "note16a": ["Rom. 14:3 (13)"], "note16b": ["TGWord of Wisdom"], "note16c": ["TGSabbath"], "note12a": ["TGJesus Christ, Types of, in Memory"], "note12b": ["TGBaptism", "Baptism, Immersion"], "note12c": ["Col. 3:1"], "note12d": ["Eph. 1:19 (1920)"], "note14a": ["Eph. 2:15"]}

4.HTML

{"note1a": ["Mal. 3:5", "Eph. 6:9"], "note10b": ["Acts 15:37 (3739)", "2Tim. 4:11"], "note1c": ["TGHeaven"], "note1b": ["Matt. 23:8"], "note11a": ["TGCircumcision"], "note9a": ["Philem. 1:10"], "note3a": ["1Cor. 16:9"], "note18a": ["2Thes. 3:17"], "note15a": ["Col. 2:1", "Rev. 1:11"], "note10a": ["Acts 19:29", "20:4", "27:2"], "note16a": ["TGScriptures, Lost"], "note17a": ["Philem. 1:2"], "note12a": ["Col. 1:7 (78)", "Philem. 1:23"], "note18b": ["Heb. 13:3"], "note6a": ["TGCommunication"], "note6b": ["TGSalt"], "note14a": ["2Tim. 4:10", "Philem. 1:24"], "note5a": ["TGWalking with God"], "note13a": ["TGZeal"], "note5b": ["TGWisdom"]}

3.HTML

{"note11a": ["1Cor. 12:13"], "note11b": ["TGCircumcision"], "note8b": ["TGAnger"], "note8c": ["TGMalice"], "note24b": ["TGReward"], "note8a": ["Eph. 4:22 (2224)"], "note23a": ["TGCommitment", "Industry", "Laziness"], "note8d": ["TGBlaspheme"], "note8e": ["TGProfanity"], "note21b": ["TGProvoking"], "note21c": ["TGAnger"], "note21a": ["TGFamily, Children, Responsibilities toward"], "note25b": ["D&C 1:35", "38:16"], "note6a": ["TGGod, Indignation of"], "note6b": ["TGDisobedience"], "note25a": ["TGInjustice"], "note4b": ["1Jn. 3:2"], "note4c": ["1Cor. 15:43 (4244)"], "note4a": ["Ether 4:12"], "note1a": ["Col. 2:12"], "note19a": ["TGMarriage, Husbands"], "note3a": ["Rom. 6:5 (25)", "Col. 2:20"], "note15a": ["TGPeace of God"], "note20a": ["TGChildren", "Family, Love within"], "note15b": ["TGThanksgiving"], "note17b": ["Col. 1:12", "TGPrayer"], "note17a": ["1Cor. 10:31"], "note13b": ["Mosiah 26:31 (3031)"], "note13a": ["TGForbear"], "note19b": ["TGMarriage, Continuing Courtship in"], "note10b": ["Rom. 8:29"], "note10c": ["TGJesus Christ, Creator", "Man, Physical Creation of"], "note10a": ["TGMan, New, Spiritually Reborn"], "note9a": ["TGHonesty", "Lying"], "note9b": ["Rom. 6:6", "Mosiah 3:19"], "note22c": ["TGReverence"], "note22b": ["TGSincere"], "note22a": ["1Tim. 6:1 (12)", "Titus 2:9 (910)", "1Pet. 2:18"], "note24a": ["Eph. 6:8"], "note24d": ["1Cor. 7:22"], "note5e": ["TGIdolatry"], "note5d": ["TGCovet"], "note18a": ["TGMarriage, Wives"], "note5a": ["Rom. 8:13"], "note5c": ["TGSexual Immorality"], "note5b": ["Rom. 6:13"], "note2d": ["TGWorldliness"], "note20b": ["TGFamily, Children, Duties of", "Honoring Father and Mother"], "note24c": ["TGInheritance"], "note2b": ["Matt. 6:33"], "note2c": ["Prov. 15:24"], "note16d": ["TGSinging"], "note16a": ["2Ne. 32:3"], "note16b": ["TGGod, Intelligence of"], "note16c": ["TGTeaching"], "note12a": ["TGElection"], "note12b": ["Gal. 5:22"], "note12c": ["TGMercy"], "note12d": ["TGBenevolence"], "note12e": ["TGHumility"], "note12f": ["TGMeek"], "note14a": ["TGCharity"]}

