**************************************** . ****************************************
1.HTML

{"note11a": ["Eph. 1:5"], "note8b": ["TGPrudence"], "note8a": ["TGGod, Omniscience of"], "note21a": ["Heb. 1:4", "TGName"], "note4b": ["TGMan, Antemortal Existence of"], "note4c": ["TGHoliness"], "note4a": ["TGElection", "Foreordination"], "note1a": ["TGSaints"], "note7d": ["TGGrace"], "note7c": ["TGTreasure"], "note7b": ["TGForgive"], "note7a": ["TGJesus Christ, Atonement through", "Jesus Christ, Redeemer", "Redemption"], "note19a": ["Col. 2:12"], "note3a": ["TGSpirituality"], "note15a": ["Col. 1:4 (45)"], "note20a": ["Acts 2:32", "1Cor. 15:20 (1420)"], "note17b": ["TGRevelation"], "note17a": ["TGWisdom"], "note13c": ["TGPromise"], "note13b": ["TGSealing"], "note13a": ["D&C 93:51", "TGGospel"], "note10b": ["TGIsrael, Gathering of"], "note10c": ["TGJesus Christ, Power of"], "note10a": ["TGDispensations", "Last Days", "Restoration of the Gospel"], "note22d": ["TGChurch"], "note9a": ["Eph. 3:4", "D&C 107:19"], "note9b": ["TGGod, Will of"], "note22c": ["TGJesus Christ, Head of the Church", "Jesus Christ, Messiah"], "note22b": ["Heb. 2:8"], "note22a": ["TGJesus Christ, Power of"], "note18b": ["D&C 6:15", "11:13", "TGEducation"], "note18c": ["TGTreasure"], "note18a": ["TGUnderstanding"], "note5a": ["Eph. 1:11", "TGForeordination"], "note18d": ["TGInheritance"], "note5b": ["TGSons and Daughters of God"], "note20b": ["Heb. 7:26"]}

2.HTML

{"note11a": ["TGCircumcision"], "note8b": ["TGSalvation", "Salvation, Plan of"], "note8c": ["TGFaith"], "note8a": ["Alma 22:14 (1314)", "42:14 (1025)", "D&C 20:30 (2934)", "TGGrace"], "note8d": ["TGGod, Gifts of"], "note19d": ["TGSons and Daughters of God"], "note19a": ["TGGentiles", "Stranger"], "note19c": ["TGSaints"], "note4a": ["TGGod, Mercy of"], "note1a": ["Col. 1:21", "Rev. 3:1"], "note7a": ["TGTreasure"], "note3b": ["TGMan, Natural, Not Spiritually Reborn"], "note3a": ["TGLust"], "note15a": ["Col. 2:14"], "note20a": ["TGApostles", "Church Organization"], "note15c": ["TGMan, New, Spiritually Reborn"], "note15b": ["TGOrdinance"], "note19b": ["TGCitizenship", "Fellowshipping"], "note10b": ["TGGood Works"], "note10c": ["TGWalking with God"], "note10a": ["Ps. 100:3", "Isa. 60:21", "D&C 29:25"], "note9a": ["TGBoast"], "note20c": ["TGCornerstone"], "note20b": ["TGProphets, Mission of"], "note5a": ["TGResurrection"], "note14b": ["TGVeil"], "note2a": ["TGWorldliness"], "note2b": ["D&C 121:17", "TGDisobedience"], "note16a": ["TGJesus Christ, Atonement through"], "note12a": ["TGStranger"], "note12b": ["TGCovenants"], "note12c": ["1Thes. 4:13"], "note12d": ["1Thes. 4:5", "Mosiah 27:31", "Alma 41:11"], "note14a": ["TGPeace", "Peace of God"]}

4.HTML

{"note11e": ["TGBishop"], "note11d": ["Acts 21:8", "2Tim. 4:5", "TGPatriarch"], "note11f": ["TGTeacher"], "note11a": ["TGAuthority"], "note11c": ["TGProphets, Mission of"], "note11b": ["TGApostles", "Church Organization", "Priesthood, History of"], "note24b": ["TGRighteousness"], "note8a": ["Ps. 68:18", "Acts 1:9", "D&C 88:6"], "note31c": ["TGSlander"], "note27a": ["Mosiah 2:32 (3233)", "3Ne. 11:29"], "note31a": ["TGAnger"], "note31d": ["TGMalice"], "note25b": ["TGHonesty", "Truth"], "note6a": ["Mal. 2:10", "1Cor. 8:6", "TGGod the Father, Elohim"], "note25a": ["TGLying"], "note19a": ["1Ne. 17:45"], "note4a": ["TGChurch"], "note1a": ["TGWorthiness"], "note32a": ["TGBenevolence", "Courtesy", "Family, Love within", "Kindness"], "note7a": ["TGGrace"], "note30b": ["TGGod, Spirit of"], "note24a": ["TGMan, New, Spiritually Reborn", "Mission of Early Saints"], "note3a": ["TGUnity"], "note15a": ["TGReproof"], "note15b": ["Col. 2:19", "TGJesus Christ, Head of the Church"], "note17c": ["TGMind"], "note17b": ["TGVanity"], "note17a": ["1Thes. 4:5"], "note13c": ["TGGod, Perfection of", "Man, Potential to Become like Heavenly Father", "Perfection"], "note13b": ["TGLearn"], "note13a": ["1Cor. 1:10", "14:33", "Eph. 4:5 (36)", "3Ne. 11:28 (2830)", "D&C 1:30", "38:27"], "note19b": ["TGConscience"], "note29a": ["TGCommunication", "Gossip", "Profanity"], "note10a": ["TGJesus Christ, Ascension of"], "note22c": ["TGLust"], "note22b": ["Rom. 6:6 (17)"], "note22a": ["Col. 3:8"], "note26b": ["TGAnger"], "note26a": ["JSTEph. 4:26"], "note30c": ["TGSealing"], "note18b": ["TGIgnorance"], "note18c": ["TGSpiritual Blindness"], "note18a": ["D&C 10:2", "TGUnderstanding"], "note5a": ["1Cor. 14:33", "Eph. 4:13", "D&C 1:30", "TGGospel"], "note18d": ["TGHardheartedness"], "note5b": ["TGBaptism, Essential", "Baptism, Immersion"], "note32b": ["TGForgive"], "note30a": ["Gen. 6:6"], "note2a": ["TGForbear"], "note28a": ["TGStealing"], "note28c": ["Prov. 21:26"], "note28b": ["TGLabor", "Work, Value of"], "note31b": ["TGBackbiting"], "note12a": ["TGPriesthood, Magnifying Callings within"], "note12b": ["TGEdification"], "note14b": ["Heb. 13:9"], "note14a": ["1Cor. 14:20"]}

6.HTML

{"note11a": ["Ps. 91:4", "Rom. 13:12", "2Cor. 10:4 (36)", "1Thes. 5:8", "D&C 27:15 (1518)", "TGChastity", "Protection, Divine", "Watch"], "note8a": ["Col. 3:24"], "note21a": ["Acts 20:4"], "note6a": ["1Cor. 7:22 (2124)"], "note6b": ["TGGod, Will of"], "note4b": ["TGProvoking"], "note4c": ["TGFamily, Children, Responsibilities toward"], "note4a": ["TGFamily, Love within", "Family, Patriarchal", "Marriage, Fatherhood"], "note1a": ["TGChildren"], "note1b": ["TGCounsel", "Family, Children, Duties of", "Respect"], "note7a": ["TGService"], "note19a": ["TGMysteries of Godliness"], "note15a": ["TGPeace of God"], "note20a": ["D&C 60:2 (23)"], "note17a": ["TGSalvation"], "note10a": ["TGStrength"], "note9a": ["Mal. 3:5", "Col. 4:1"], "note9c": ["Moro. 8:12", "D&C 38:16"], "note9b": ["TGLeadership"], "note24a": ["TGSincere"], "note18b": ["TGPerseverance"], "note18a": ["TGPrayer"], "note5a": ["Titus 2:9"], "note14d": ["TGRighteousness"], "note5b": ["1Pet. 2:18 (1325)"], "note14b": ["TGTruth"], "note2a": ["TGHonoring Father and Mother"], "note14c": ["Isa. 59:17", "61:10"], "note16a": ["TGFaith"], "note16b": ["1Ne. 15:24", "D&C 3:8"], "note12a": ["JSH 1:15 (1517)"], "note12b": ["TGOpposition"], "note12c": ["TGFlesh and Blood"], "note12d": ["2Cor. 4:4"], "note12e": ["TGDarkness, Spiritual", "Secret Combinations"], "note12f": ["TGGovernments", "Wickedness"], "note14a": ["Isa. 11:5"]}

5.HTML

{"note11a": ["Gen. 49:6", "Ps. 1:1 (12)", "Prov. 1:10 (1019)"], "note11c": ["TGReproof"], "note11b": ["TGDarkness, Spiritual"], "note8b": ["Rom. 12:2"], "note8a": ["TGChildren of Light"], "note23a": ["TGMarriage, Husbands"], "note23b": ["TGJesus Christ, Head of the Church"], "note23c": ["TGChurch"], "note31a": ["TGMarriage, Celestial", "Unity"], "note21a": ["TGReconciliation"], "note25b": ["TGFamily, Love within", "Love"], "note6a": ["TGDeceit"], "note6b": ["TGGod, Indignation of"], "note6c": ["TGDisobedience"], "note4b": ["TGLevity"], "note4c": ["Eccl. 5:2", "Matt. 12:36"], "note4a": ["TGFilthiness"], "note1a": ["1Cor. 11:1", "Philip. 3:17 (1321)", "TGGod, the Standard of Righteousness", "Jesus Christ, Exemplar"], "note25a": ["TGFamily, Patriarchal"], "note3b": ["TGSaints"], "note3a": ["TGChastity", "Fornication", "Sexual Immorality"], "note20a": ["TGThanksgiving"], "note17a": ["TGWisdom"], "note19b": ["2Kgs. 3:15"], "note29b": ["TGBody, Sanctity of"], "note29a": ["TGHate"], "note33b": ["TGCourtesy", "Respect"], "note9a": ["TGGood Works"], "note22b": ["Esth. 1:20 (2022)", "TGSubmissiveness"], "note22a": ["TGMarriage, Continuing Courtship in"], "note26b": ["TGPurification"], "note26a": ["TGSanctification"], "note18b": ["TGTemperance"], "note32a": ["TGMysteries of Godliness"], "note18a": ["TGDrunkenness", "Word of Wisdom"], "note5a": ["TGChastity", "Whore"], "note5c": ["TGInheritance", "Worthiness"], "note5b": ["TGUncleanness"], "note33a": ["TGMarriage, Wives"], "note25c": ["TGMarriage, Continuing Courtship in"], "note30a": ["1Cor. 6:15"], "note2d": ["Gen. 8:21", "Lev. 1:9"], "note2a": ["TGWalking with God"], "note2b": ["Heb. 8:3"], "note2c": ["TGSelf-Sacrifice"], "note28a": ["TGMarriage, Wives"], "note19a": ["TGSinging"], "note12a": ["TGShame"], "note14a": ["TGJesus Christ, Light of the World", "Light [noun]"]}

3.HTML

{"note9b": ["TGCreation", "God, Creator", "Jesus Christ, Creator"], "note11a": ["TGEarth, Purpose of"], "note17a": ["Col. 2:7"], "note8b": ["TGTreasure"], "note3b": ["TGScriptures, Lost"], "note3a": ["Col. 1:27 (2627)"], "note8a": ["TGGrace"], "note2a": ["TGDispensations"], "note14a": ["TGGodhead"], "note15a": ["TGFamily"], "note9a": ["TGMysteries of Godliness"], "note16a": ["TGTreasure"], "note16b": ["Col. 1:11", "TGStrength"], "note21a": ["D&C 76:112"], "note19a": ["TGGod, Love of"], "note6a": ["TGGentiles"], "note4a": ["Rom. 16:25", "Eph. 1:9 (911)"], "note5a": ["TGRevelation"], "note9c": ["TGJesus Christ, Jehovah"], "note17b": ["Col. 1:23"], "note5b": ["TGProphets, Mission of"]}

