**************************************** . ****************************************
1.HTML

{"note11a": ["Ezek. 35:5 (115)"], "note8a": ["D&C 45:26"], "note21d": ["Ps. 22:28", "2Ne. 33:12 (1112)"], "note21b": ["D&C 76:66"], "note21c": ["D&C 64:37 (3138)"], "note21a": ["D&C 103:910", "TGGenealogy and Temple Work", "Mission of Latter-day Saints", "Salvation for the Dead"], "note19a": ["Zeph. 2:5 (57)", "2Ne. 21:14"], "note1a": ["Gen. 36:1", "Jer. 49:7 (722)"], "note3b": ["TGHardheartedness"], "note3a": ["Jer. 49:16 (1416)", "2Ne. 20:33", "Hel. 4:12 (1213)", "D&C 101:42"], "note15a": ["Joel 3:14 (1121)"], "note15c": ["Ezek. 35:15"], "note15b": ["TGHeathen"], "note17c": ["Amos 9:12"], "note17b": ["Joel 2:32", "TGDeliver"], "note17a": ["TGZion"], "note15d": ["TGReward"], "note9a": ["Amos 1:12"], "note9b": ["D&C 56:3", "64:35 (3536)"], "note18b": ["Isa. 34:5", "Jer. 49:17 (722)", "Ezek. 25:14 (1214)", "Amos 9:12"], "note18a": ["Zech. 12:6", "2Ne. 15:24", "20:17", "3Ne. 20:16"], "note5a": ["Jer. 49:9"], "note16a": ["Jer. 25:28 (1533)", "49:12 (712)"], "note12a": ["Prov. 17:5"]}

