**************************************** . ****************************************
127.HTML

{"note1a": ["TGLabor"], "note1b": ["Ps. 121:3"], "note3c": ["TGReward"], "note3b": ["TGMarriage, Fatherhood"], "note3a": ["TGBirth Control", "Family, Patriarchal"], "note2a": ["TGSleep"], "note5a": ["TGFamily, Love within", "Happiness"]}

126.HTML

{"note6a": ["D&C 75:5"], "note6b": ["D&C 31:5", "33:9"], "note5a": ["TGJoy"], "note2a": ["Ezek. 36:36"], "note2b": ["Luke 1:49"]}

57.HTML

{"note1a": ["Ruth 2:12"], "note7b": ["Ps. 108:1 (15)", "2Ne. 22:5 (56)", "Alma 26:8", "D&C 136:28"], "note6a": ["Ps. 9:15 (1516)"], "note6b": ["Ps. 119:85"], "note6c": ["1Ne. 14:3"], "note4b": ["Ps. 52:2", "64:3"], "note4c": ["Ps. 59:7", "Prov. 25:18"], "note4a": ["Prov. 30:14"]}

148.HTML

{"note8a": ["TGNature, Earth"], "note6a": ["Ps. 119:89"], "note13a": ["TGCelestial Glory"], "note4a": ["Gen. 1:7"], "note5a": ["Ps. 33:9"], "note5b": ["TGCreation"]}

145.HTML

{"note10a": ["TGMission of Early Saints"], "note8b": ["Ps. 86:15"], "note8a": ["Ex. 34:6"], "note20a": ["Ps. 97:10", "1Ne. 17:35 (3335)", "D&C 82:10 (810)", "TGProtection, Divine"], "note17a": ["TGRighteousness"], "note12a": ["1Chr. 16:8"], "note18b": ["John 4:23 (2224)", "Moro. 10:4"], "note6a": ["Ex. 34:10"], "note13a": ["TGImmortality"], "note18a": ["Ps. 119:151"], "note19a": ["1Jn. 5:15 (1415)"], "note4a": ["Deut. 4:9", "Ps. 78:3 (34)", "Isa. 38:19"]}

31.HTML

{"note11a": ["Job 19:14 (1415)", "Ps. 64:8"], "note23d": ["TGReward"], "note23a": ["TGGod, Love of"], "note23b": ["TGProtection, Divine"], "note23c": ["Mosiah 2:41", "Ether 4:19", "D&C 6:13", "61:10", "63:47", "66:8"], "note19a": ["TGReward"], "note4a": ["Ps. 9:15", "25:15"], "note1a": ["TGTrust in God"], "note1c": ["Dan. 9:16"], "note1b": ["TGShame"], "note24a": ["TGCourage"], "note3a": ["Ps. 23:3", "109:21"], "note17a": ["TGShame"], "note13a": ["Jer. 20:10", "TGSlander"], "note20a": ["Ps. 27:5"], "note20b": ["TGGossip", "Strife"], "note22a": ["TGHaste", "Rashness"], "note18b": ["TGSilence"], "note18a": ["TGHonesty", "Lying"], "note5a": ["Luke 23:46"], "note16a": ["Num. 6:25"], "note12a": ["Ps. 88:5 (45)"], "note12b": ["Jer. 22:28", "48:38", "Hosea 8:8", "Rev. 2:27 (2627)", "D&C 76:33 (3133)"], "note14a": ["TGFaith"]}

93.HTML

{"note1a": ["D&C 65:5"], "note2a": ["TGGod, Eternal Nature of"]}

55.HTML

{"note11a": ["TGGuile", "Sincere"], "note9a": ["TGStrife"], "note22b": ["1Ne. 17:35 (3338)", "22:17"], "note22a": ["Prov. 16:3", "Matt. 6:25", "11:28 (2830)", "Philip. 4:6"], "note15a": ["Num. 16:30"], "note17b": ["Ps. 13:3"], "note17a": ["TGPrayer"], "note19b": ["Job 10:17"], "note4a": ["TGPain"]}

91.HTML

{"note1a": ["Ps. 32:7"], "note1b": ["Ps. 121:5"], "note11a": ["Luke 4:10 (1011)", "TGAngels"], "note5a": ["Isa. 43:2"], "note3a": ["Ps. 124:7"], "note8a": ["Mosiah 16:2", "D&C 1:9 (910)"], "note2a": ["TGTrust in God"], "note6a": ["Dan. 3:25"], "note13a": ["Luke 10:19"], "note4b": ["Prov. 2:7"], "note4a": ["Eph. 6:11", "D&C 35:14"]}

108.HTML

{"note1a": ["Ps. 57:7 (711)", "2Ne. 22:5", "Alma 26:8", "D&C 136:28"], "note6b": ["Ps. 60:5 (512)"]}

35.HTML

{"note1a": ["D&C 121:5 (16)"], "note10b": ["Isa. 25:4", "D&C 56:18 (1819)"], "note1b": ["Isa. 49:25", "D&C 98:37", "105:14"], "note11a": ["TGSlander"], "note9a": ["TGJoy"], "note9b": ["TGSalvation"], "note23a": ["Ps. 59:4"], "note15a": ["TGAdversity"], "note27a": ["TGPleasure"], "note10a": ["Prov. 22:23"], "note16a": ["TGMocking"], "note17a": ["D&C 121:2 (16)"], "note13b": ["TGFast, Fasting"], "note12a": ["Ps. 38:20"], "note13a": ["TGSickness"], "note19a": ["TGHate"], "note14a": ["TGBrotherhood and Sisterhood"]}

104.HTML

{"note1a": ["Prov. 31:25"], "note10a": ["TGNature, Earth"], "note29b": ["TGBreath of Life"], "note9a": ["Moses 7:51 (5052)"], "note24a": ["TGTreasure"], "note3a": ["Isa. 19:1"], "note2a": ["Job 9:8", "Isa. 40:22"], "note2b": ["TGHeaven"], "note34a": ["TGMeditation"], "note16a": ["Num. 24:6"], "note6a": ["Gen. 7:19"], "note29a": ["Ps. 30:7"], "note19a": ["Gen. 1:14", "Moses 2:14 (35, 14)"], "note29c": ["Moses 4:25"], "note4a": ["TGAngels"]}

98.HTML

{"note1a": ["TGSinging"], "note1b": ["Ex. 15:6 (112)"], "note9a": ["1Ne. 22:21 (2124)", "Moses 6:57"], "note3b": ["TGSalvation"], "note3a": ["Gen. 24:27", "3Ne. 5:21 (2126)"], "note9b": ["TGWorld"], "note2a": ["Isa. 62:2"], "note2b": ["Lev. 26:45"], "note2c": ["1Ne. 15:13", "D&C 90:10 (1011)"]}

149.HTML

{"note1a": ["TGSaints"], "note2a": ["Ps. 95:6"], "note2b": ["Joel 2:23", "D&C 84:56"], "note2c": ["Alma 5:50"], "note6a": ["D&C 6:2"], "note5b": ["TGSinging"], "note5a": ["TGGlory"], "note5c": ["Ps. 63:6"], "note4a": ["TGBeauty"]}

105.HTML

{"note11a": ["TGPromised Lands"], "note8a": ["Ex. 2:24"], "note23a": ["Gen. 46:6", "Ex. 1:1"], "note23b": ["Abr. 1:23 (2025)"], "note31a": ["Ex. 8:17 (1620)"], "note21a": ["Gen. 41:40"], "note25a": ["Ex. 1:10 (810)"], "note19a": ["Gen. 40:8"], "note1a": ["TGThanksgiving"], "note1b": ["TGPreaching"], "note15a": ["D&C 121:16"], "note20a": ["Gen. 41:14"], "note15b": ["2Ne. 26:5 (3, 5)"], "note17b": ["Gen. 37:36 (28, 36)"], "note17a": ["Gen. 45:5"], "note42a": ["TGPromise"], "note39a": ["Ex. 13:21", "Ps. 99:7"], "note40a": ["Ex. 16:13 (1213)"], "note29a": ["Ex. 7:20"], "note10a": ["1Chr. 16:17 (1617)", "Morm. 5:20", "Abr. 2:9 (611)"], "note43a": ["TGSeed of Abraham"], "note9a": ["TGCovenants"], "note9b": ["Gen. 22:16 (1618)"], "note34a": ["Ex. 10:4 (112)"], "note30a": ["Ex. 8:6"], "note36a": ["Ex. 12:29 (2731)"], "note32a": ["Ex. 9:23 (2226)"], "note18a": ["Gen. 39:20"], "note24a": ["Ex. 1:7"], "note37b": ["Ex. 12:35"], "note2a": ["D&C 19:37"], "note16a": ["TGFamine"], "note16b": ["Lev. 26:26"], "note38a": ["Ex. 12:33"], "note14a": ["Gen. 12:17", "20:3"]}

1.HTML

{"note1a": ["TGHappiness"], "note1c": ["TGCounselor"], "note1b": ["Prov. 1:10 (1019)", "Eph. 5:11 (813)"], "note1d": ["Ps. 26:4", "Jer. 15:17"], "note3b": ["Gen. 39:3 (23)", "Mosiah 1:7", "Alma 50:20", "Hel. 12:1", "D&C 9:13"], "note3a": ["Jer. 17:8 (78)"], "note2a": ["TGAbundant Life"], "note2b": ["TGGod, Law of"], "note2c": ["TGMeditation"], "note6a": ["TGRighteousness"], "note6b": ["TGGodliness"], "note4a": ["Job 21:18 (1718)", "Ps. 83:13 (2, 13)", "Hosea 13:3 (14)", "Morm. 5:16 (1618)"]}

67.HTML

{"note1a": ["D&C 50:16"], "note6a": ["2Ne. 1:20"], "note6b": ["TGEarth, Renewal of"], "note1b": ["Ps. 4:6"], "note2a": ["Luke 2:30 (3031)", "Mosiah 15:28", "D&C 133:37 (3637)"]}

139.HTML

{"note1a": ["D&C 121:24 (2324)"], "note1b": ["2Sam. 7:20"], "note7b": ["Jonah 1:3"], "note7a": ["Jer. 23:24 (2324)"], "note20a": ["Jude 1:15 (1416)"], "note3a": ["TGGod, Omniscience of"], "note8a": ["Job 26:6 (19)", "Amos 9:2 (24)"], "note2a": ["Amos 4:13", "Matt. 12:25", "Mosiah 24:12", "D&C 6:16"], "note20b": ["Matt. 5:33"], "note23a": ["TGTest"], "note16a": ["Ex. 32:32", "Rev. 17:8"], "note17a": ["Isa. 55:9 (89)"], "note6a": ["TGGod, Intelligence of"], "note6b": ["Job 42:3"], "note19a": ["Isa. 11:4 (34)", "D&C 63:33 (2937)"]}

56.HTML

{"note1a": ["Ps. 124:3"], "note3a": ["1Sam. 30:6"], "note8a": ["TGBook of Remembrance"], "note13b": ["TGWalking with God"], "note12a": ["TGVow"], "note13a": ["Ps. 116:8"], "note4b": ["Ps. 118:6", "Isa. 51:12", "2Ne. 8:7 (7, 12)", "D&C 122:9"], "note4a": ["TGTrust in God"]}

60.HTML

{"note1a": ["1Ne. 10:14", "2Ne. 25:15 (1418)", "D&C 101:13"], "note7a": ["Gen. 49:10"], "note8b": ["Ps. 108:9"], "note8a": ["2Sam. 8:14"], "note6a": ["Gen. 33:17"], "note4a": ["2Ne. 29:2"], "note5b": ["Ps. 108:6 (613)"]}

92.HTML

{"note1a": ["D&C 59:7"], "note15a": ["Ps. 78:35"], "note15b": ["Rom. 9:14"], "note12a": ["Ps. 52:8"], "note5a": ["Ps. 40:5", "Morm. 9:16", "D&C 76:114", "Moses 1:4"], "note14a": ["TGOld Age"]}

144.HTML

{"note1a": ["2Sam. 22:35 (3236)"], "note11a": ["TGVanity"], "note9a": ["TGSinging"], "note3a": ["Job 7:17 (1718)", "Ps. 8:4 (19)"], "note8a": ["Isa. 44:20"], "note15a": ["TGAbundant Life", "Happiness"], "note4b": ["1Chr. 29:15", "Ps. 102:11", "Jacob 7:26"], "note4a": ["TGVanity"]}

117.HTML

{"note2a": ["D&C 84:45", "93:24"]}

115.HTML

{"note1a": ["Isa. 48:11"], "note9a": ["TGTrust in God"], "note4b": ["Jer. 10:9"], "note14a": ["Deut. 1:11"], "note15a": ["Gen. 24:31"], "note17a": ["D&C 128:22"], "note4a": ["Ex. 20:4"], "note5a": ["Isa. 46:7"], "note5b": ["Isa. 44:9"]}

2.HTML

{"note1a": ["TGHeathen"], "note11a": ["TGReverence"], "note7a": ["TGJesus Christ, Divine Sonship", "Jesus Christ, Prophecies about"], "note9a": ["Isa. 11:4", "2Ne. 21:4", "D&C 19:15"], "note9c": ["Isa. 30:14 (1314)"], "note9b": ["Rev. 2:27 (2628)"], "note2a": ["Acts 4:26 (2527)"], "note2b": ["TGCounsel"], "note2c": ["TGAnointing"], "note12a": ["TGBlessing"], "note6b": ["Ps. 48:1", "99:9", "Isa. 27:13"], "note12b": ["TGTrust in God"], "note4a": ["TGLaughter"]}

48.HTML

{"note1c": ["Ps. 2:6"], "note1b": ["Isa. 2:3 (25)"], "note11a": ["Ps. 97:8"], "note7a": ["Isa. 2:16", "Ezek. 27:25"], "note2d": ["Isa. 14:13"], "note2e": ["Matt. 5:35"], "note2a": ["TGBeauty"], "note2b": ["Lam. 2:15", "Ezek. 20:6"], "note2c": ["TGZion"], "note10a": ["Deut. 28:58"], "note6a": ["TGWoman"], "note13a": ["Ps. 102:18"], "note14a": ["D&C 20:12", "Abr. 1:19"]}

21.HTML

{"note9a": ["Mal. 4:1", "1Ne. 22:15", "3Ne. 25:1", "D&C 29:9", "133:64"], "note3b": ["2Sam. 12:30"], "note10a": ["Ps. 37:28", "109:13", "2Ne. 24:20"], "note5a": ["Ps. 45:3"], "note2a": ["Alma 29:4"]}

89.HTML

{"note11a": ["Ps. 24:1"], "note35b": ["Amos 4:2"], "note35a": ["3Ne. 21:4"], "note27a": ["TGFirstborn", "Jesus Christ, Davidic Descent of", "Jesus Christ, Firstborn"], "note18b": ["TGKingdom of God, in Heaven"], "note6a": ["Jer. 10:7"], "note4b": ["TGJesus Christ, Millennial Reign", "Kingdom of God, on Earth"], "note4a": ["TGJesus Christ, Davidic Descent of"], "note1a": ["Ps. 119:90"], "note32a": ["TGTransgress"], "note7a": ["TGSaints"], "note3a": ["Hag. 2:23"], "note20a": ["1Sam. 16:13"], "note17a": ["1Sam. 2:1 (110)"], "note39a": ["D&C 132:39 (3739)"], "note29a": ["Deut. 11:21"], "note45a": ["TGShame"], "note10a": ["1Chr. 17:10", "Micah 4:10", "D&C 65:6"], "note9a": ["Ps. 65:7", "Matt. 8:26 (2327)", "Mark 4:39 (3741)"], "note47a": ["TGTime"], "note26a": ["2Sam. 22:47", "Ps. 95:1"], "note36a": ["Ps. 72:5"], "note32b": ["2Sam. 7:14"], "note18a": ["Ps. 47:9"], "note5a": ["TGChurch"], "note48a": ["Ps. 49:9"], "note14b": ["TGJudgment"], "note14a": ["TGGod, Justice of", "Justice"]}

20.HTML

{"note6a": ["Ps. 18:50", "D&C 109:80"], "note2a": ["Ps. 73:17"], "note7a": ["Isa. 31:1"]}

122.HTML

{"note1a": ["Ezra 2:68", "2Ne. 12:3 (23)", "D&C 133:13 (1214)", "TGGenealogy and Temple Work"], "note6a": ["TGPeace"], "note6b": ["Jarom 1:9", "Mosiah 1:7", "Alma 37:13"], "note8a": ["1Sam. 25:6"]}

95.HTML

{"note1a": ["1Chr. 16:9"], "note10b": ["Ps. 119:158"], "note1c": ["2Sam. 22:47", "Ps. 89:26"], "note1b": ["Ps. 66:1"], "note7c": ["Heb. 4:7"], "note7b": ["Heb. 3:7 (711)"], "note7a": ["TGJesus Christ, Good Shepherd", "Sheep"], "note10c": ["Prov. 30:12 (1114)"], "note9a": ["TGTest"], "note3b": ["TGKingdom of God, in Heaven"], "note3a": ["1Chr. 16:25"], "note8a": ["TGHardheartedness"], "note2a": ["TGThanksgiving"], "note8d": ["TGTest"], "note11b": ["TGGod, Privilege of Seeing", "Rest"], "note7d": ["D&C 88:66"], "note11a": ["Heb. 3:11"], "note8c": ["TGProvoking"], "note6a": ["TGWorship"], "note6b": ["Ps. 149:2"], "note10a": ["Num. 14:33", "Deut. 2:14 (1415)"]}

44.HTML

{"note1a": ["TGMarriage, Fatherhood"], "note1b": ["Deut. 32:7"], "note11a": ["TGIsrael, Scattering of"], "note3b": ["Josh. 24:12"], "note3a": ["Deut. 2:36"], "note8a": ["2Ne. 33:6", "Alma 26:16 (1016)", "D&C 76:61"], "note22b": ["TGSheep"], "note21a": ["TGGod, Omniscience of"], "note25a": ["Ps. 119:25"], "note22a": ["Rom. 8:36"], "note13b": ["Ezek. 36:4"], "note6a": ["Ps. 33:16 (1618)", "2Ne. 4:34", "28:31", "D&C 1:19 (1920)"], "note13a": ["TGReproach"], "note19b": ["Job 3:5"], "note4a": ["Ps. 74:12", "2Ne. 10:14", "Alma 5:50", "D&C 38:21 (2122)"]}

59.HTML

{"note4b": ["Ps. 35:23"], "note2a": ["D&C 10:5"], "note7a": ["Ps. 57:4"], "note16a": ["TGAdversity"]}

58.HTML

{"note1a": ["Mosiah 29:11"], "note10a": ["Ps. 68:23"], "note11a": ["TGReward"], "note11b": ["TGJesus Christ, Judge"], "note3b": ["TGConceived in Sin"], "note3a": ["Isa. 48:8"], "note6a": ["Job 4:10"]}

12.HTML

{"note6a": ["2Sam. 22:31", "Ps. 18:30"], "note3a": ["TGFlatter"], "note2a": ["James 1:8"], "note6b": ["Ps. 19:8"]}

111.HTML

{"note1a": ["TGAssembly for Worship"], "note10b": ["TGUnderstanding"], "note10a": ["TGLearn", "Wisdom"], "note9a": ["TGReverence"], "note3b": ["TGHonor"], "note3a": ["1Chr. 16:12"], "note8a": ["1Ne. 14:7", "D&C 29:33", "Moses 1:4"], "note6a": ["TGHeathen"]}

22.HTML

{"note1a": ["Matt. 27:46"], "note28a": ["1Chr. 29:11", "Obad. 1:21", "D&C 6:13"], "note1b": ["TGDespair", "Jesus Christ, Crucifixion of", "Jesus Christ, Prophecies about"], "note7a": ["Luke 23:35"], "note8a": ["Matt. 27:43"], "note18a": ["Matt. 27:35", "Mark 15:24", "Luke 23:34", "John 19:24"], "note25a": ["TGAssembly for Worship"], "note27a": ["TGWorld"], "note31a": ["TGPreaching"], "note28b": ["TGGovernments"], "note16a": ["TGJesus Christ, Betrayal of"], "note16b": ["TGJesus Christ, Crucifixion of", "Jesus Christ, Prophecies about", "Suffering"], "note22a": ["Heb. 2:12"], "note6a": ["TGReproach"], "note6b": ["Isa. 53:3", "1Ne. 19:14", "Mosiah 14:3 (36)"], "note14a": ["Jer. 23:9"], "note19a": ["TGHaste"], "note29a": ["TGSoul"], "note4a": ["TGTrust in God"]}

142.HTML

{"note3b": ["Ps. 140:5"], "note3a": ["Ps. 77:3"], "note7a": ["TGSpirits, Disembodied"], "note4a": ["TGApathy", "Compassion"]}

75.HTML

{"note10a": ["1Sam. 2:1", "Jer. 48:25"], "note7b": ["1Sam. 2:7"], "note7a": ["Mosiah 29:12", "D&C 64:11", "Moses 6:57"], "note8b": ["Job 21:20"], "note3a": ["1Sam. 2:8"], "note8a": ["Mosiah 3:26 (2426)", "Alma 40:26"], "note6a": ["Jer. 27:5 (56)", "Dan. 2:21", "5:20 (1820)"], "note5a": ["TGStiffnecked"], "note4a": ["Hel. 9:21"]}

54.HTML

{"note3a": ["Ps. 86:14"], "note7b": ["Ps. 118:7"], "note7a": ["TGDeliver"], "note4a": ["Ps. 118:7"]}

77.HTML

{"note20a": ["Ex. 15:13"], "note3b": ["Ps. 142:3 (13)"], "note20b": ["Isa. 63:12 (1112)"], "note2a": ["Ps. 86:7"], "note2b": ["Gen. 37:35", "Moses 7:44"], "note15a": ["2Ne. 3:4", "25:21", "D&C 90:10"], "note16a": ["Ex. 14:21"], "note6a": ["Job 35:10"], "note12a": ["TGMeditation"], "note18a": ["Ps. 97:4"], "note14a": ["TGMiracle"]}

83.HTML

{"note1a": ["Ps. 28:1"], "note11a": ["Judg. 8:5"], "note9a": ["Judg. 4:15"], "note17a": ["2Ne. 25:14", "D&C 71:7", "Moses 7:15 (1416)"], "note18b": ["Ps. 97:9"], "note13b": ["Ps. 1:4"], "note13a": ["Isa. 17:13"], "note18a": ["TGJesus Christ, Jehovah"], "note4a": ["Ps. 74:8", "Jer. 11:19"]}

118.HTML

{"note7b": ["Ps. 54:7"], "note7a": ["Ps. 54:4"], "note8b": ["TGDependability"], "note14b": ["TGSalvation"], "note8a": ["TGTrust in God"], "note22b": ["Zech. 10:4"], "note22a": ["TGCornerstone", "Jesus Christ, Prophecies about", "Rock"], "note24a": ["TGJoy"], "note26a": ["Matt. 21:9 (111)", "23:39", "Mark 11:9", "Luke 13:35"], "note16a": ["Ex. 15:6 (67)"], "note12a": ["Deut. 1:44"], "note6a": ["Ps. 56:4 (4, 11)", "2Ne. 8:7 (78)", "D&C 122:9"], "note14a": ["TGStrength"], "note5a": ["Ps. 4:1"], "note5b": ["2Sam. 22:20"]}

50.HTML

{"note23a": ["Ps. 61:8"], "note6a": ["Ps. 19:1", "97:6"], "note6b": ["2Ne. 21:4", "Mosiah 29:12"], "note6c": ["TGJesus Christ, Judge"], "note19a": ["TGDeceit"], "note4a": ["Deut. 4:26"], "note7a": ["Ex. 20:2"], "note4b": ["TGJudgment, the Last"], "note3a": ["TGWorld, End of"], "note15a": ["Alma 38:5 (45)", "D&C 100:17"], "note15b": ["Ps. 81:7"], "note20a": ["TGSlander"], "note22a": ["Ps. 9:17"], "note5a": ["TGSaints"], "note5c": ["TGSacrifice"], "note5b": ["TGCovenants"], "note2a": ["Lam. 2:15"], "note2b": ["TGBeauty"], "note2c": ["Deut. 33:2"], "note12a": ["TGGod, Works of", "Stewardship"], "note14b": ["TGVow"], "note14a": ["TGThanksgiving"]}

81.HTML

{"note7d": ["Ex. 17:7 (67)"], "note7b": ["Ex. 19:18 (1819)"], "note7a": ["Ps. 50:15", "Alma 9:17", "38:5", "D&C 3:8"], "note3a": ["Lev. 23:24", "Num. 10:10"], "note15a": ["TGSubmissiveness"], "note12a": ["Acts 7:42", "Rom. 1:28"], "note6a": ["Ex. 1:11", "6:6 (67)", "Mosiah 24:21 (1421)", "D&C 109:48 (4748)"], "note12b": ["TGLust"], "note5a": ["TGLanguage"], "note13a": ["Deut. 32:29"]}

34.HTML

{"note1a": ["Mosiah 2:20 (2021)", "Ether 6:9", "D&C 46:7", "59:7", "78:19"], "note10a": ["Prov. 13:25"], "note19a": ["2Tim. 3:12", "TGAffliction"], "note7a": ["TGAngels"], "note8b": ["Lam. 3:25", "Nahum 1:7", "D&C 70:18 (1718)"], "note4b": ["Ps. 4:1 (1, 3)"], "note3a": ["Philip. 1:20 (1830)"], "note8a": ["Mosiah 4:11", "Alma 36:24 (2426)", "Morm. 1:15"], "note18a": ["TGRemission of Sins"], "note15a": ["Ps. 33:18", "Amos 9:8", "D&C 67:2"], "note20a": ["TGJesus Christ, Prophecies about"], "note15b": ["D&C 76:5"], "note14b": ["TGPeace", "Peacemakers"], "note17a": ["1Cor. 10:13 (1214)", "Alma 36:27 (2627)"], "note22a": ["TGFaith", "Trust in God"], "note18b": ["TGContrite Heart", "Meek", "Poor in Spirit"], "note13b": ["TGGuile", "Honesty", "Sincere"], "note13a": ["TGGossip", "Profanity"], "note14a": ["Eccl. 3:12"], "note5a": ["TGLight of Christ"], "note4a": ["Lam. 3:25", "Heb. 11:6", "Alma 37:37 (3637)"]}

66.HTML

{"note1a": ["Ps. 95:1"], "note10a": ["TGTest"], "note11a": ["Lev. 26:21 (1433)", "Deut. 9:8 (729)"], "note9a": ["Ps. 121:3"], "note3a": ["D&C 49:6", "76:61"], "note12a": ["Isa. 43:2"], "note6a": ["Josh. 3:17 (1417)", "Ps. 74:15", "TGIsrael, Deliverance of"], "note12b": ["Lev. 26:6 (313)"], "note18a": ["Prov. 1:28 (2429)"], "note4a": ["2Ne. 21:9", "D&C 88:104"]}

42.HTML

{"note8a": ["Ps. 63:6"], "note11a": ["2Ne. 4:28 (1731)"], "note2a": ["Ps. 63:1", "143:6 (512)", "Isa. 55:1 (13)", "John 4:14 (1315)", "7:37 (3739)"], "note2b": ["Josh. 3:10", "Hosea 1:10", "Alma 5:13", "D&C 20:19"], "note11b": ["TGHope"]}

106.HTML

{"note11a": ["Ex. 14:28"], "note8b": ["Ex. 18:1"], "note8a": ["Ex. 9:16", "Isa. 63:14", "Ezek. 20:9", "36:22"], "note23a": ["Ex. 32:10 (1011, 32)"], "note35a": ["Judg. 3:5 (56)", "Isa. 2:6"], "note6a": ["Jer. 14:20", "Dan. 9:5 (56)"], "note25a": ["TGMurmuring"], "note19a": ["Ex. 32:4"], "note1b": ["Ps. 119:68"], "note7a": ["Ex. 14:11 (1112)"], "note33a": ["Num. 20:10"], "note17a": ["Num. 16:32 (3035)"], "note42a": ["Lev. 26:38"], "note42b": ["Judg. 4:3"], "note40a": ["Moses 7:34"], "note45a": ["Ps. 74:20", "Jer. 14:21"], "note45b": ["Judg. 2:18", "Moses 8:25"], "note9a": ["2Ne. 7:2"], "note9b": ["Ex. 14:21 (131)"], "note34a": ["Judg. 1:21 (21, 2736)"], "note30a": ["Num. 25:7 (78)"], "note36a": ["TGApostasy of Israel"], "note32b": ["Deut. 1:37", "3:26"], "note32a": ["Ezek. 47:19", "TGStrife"], "note24a": ["TGUnbelief"], "note48a": ["Ps. 72:18"], "note2a": ["Jacob 4:8"], "note18a": ["Num. 16:35"], "note28a": ["Hosea 9:10"], "note28b": ["Ex. 34:15"], "note16a": ["TGEnvy"], "note38a": ["Jer. 2:34 (3137)"], "note38b": ["TGIdolatry"], "note14a": ["TGLust"]}

78.HTML

{"note8b": ["TGStubbornness"], "note8c": ["Jer. 5:23"], "note8a": ["Zech. 1:4"], "note46a": ["Ex. 10:14 (1215)"], "note35a": ["Ps. 71:3", "92:15", "Moses 7:53"], "note27a": ["Ex. 16:13"], "note21a": ["Num. 11:1 (1, 10)"], "note25a": ["TGAngels"], "note4b": ["Isa. 38:19"], "note4a": ["D&C 68:25"], "note1a": ["Ps. 49:1", "2Ne. 9:31", "Mosiah 26:28", "D&C 1:14 (2, 11, 14)", "Moses 6:27"], "note19a": ["Ex. 16:3 (35)"], "note3a": ["Deut. 4:9", "Ps. 145:4 (121)"], "note58a": ["Deut. 32:16"], "note15a": ["Ex. 17:6", "Num. 20:11 (711)"], "note37a": ["TGHeart"], "note13a": ["Ex. 14:21 (2122)", "Ps. 114:3", "Isa. 63:12"], "note40a": ["TGProvoking"], "note70a": ["1Sam. 16:13 (1113)"], "note57a": ["Hosea 7:16 (1416)"], "note10a": ["Ex. 34:28"], "note65a": ["Ps. 73:20"], "note60a": ["Judg. 18:31"], "note47a": ["Ex. 9:25 (2325)"], "note22b": ["TGTrust in God"], "note22a": ["TGFaith"], "note34a": ["Hel. 12:3"], "note30a": ["TGLust"], "note26a": ["Gen. 41:23", "Ezek. 27:26"], "note36b": ["Isa. 57:11"], "note36a": ["TGFlatter"], "note18b": ["TGCarnal Mind"], "note18a": ["Ex. 16:3 (23)"], "note24a": ["John 6:31"], "note39a": ["TGMortality"], "note37b": ["TGSteadfastness"], "note33a": ["TGVanity"], "note49a": ["TGSpirits, Evil or Unclean"], "note2a": ["Matt. 13:35", "Luke 8:10"], "note69a": ["TGEarth, Purpose of"], "note5a": ["TGFamily, Children, Responsibilities toward"], "note51c": ["Abr. 1:21 (2125)"], "note51a": ["TGFirstborn"], "note12a": ["TGMiracle"], "note12b": ["Num. 13:22"], "note72a": ["TGSincere"], "note53a": ["Ex. 14:28 (2728)"], "note14a": ["Ex. 13:21 (2122)", "Neh. 9:12 (12, 19)", "Ps. 99:7"]}

27.HTML

{"note1a": ["TGJesus Christ, Light of the World", "Light [noun]", "Light of Christ"], "note1c": ["D&C 3:7 (59)"], "note1b": ["TGJesus Christ, Savior", "Salvation", "Salvation, Plan of"], "note11a": ["1Kgs. 8:36"], "note1d": ["TGStrength"], "note11b": ["TGGuidance, Divine"], "note8b": ["TGGod, Privilege of Seeing"], "note5a": ["Ps. 31:20"], "note8a": ["Ether 12:41", "D&C 101:38"], "note14a": ["Ps. 37:34", "Prov. 20:22", "D&C 98:2 (23)"], "note13a": ["Ps. 116:9", "D&C 81:3"], "note14c": ["TGFaith"], "note14b": ["TGCourage"], "note12a": ["Matt. 15:19 (1920)", "Hel. 7:21 (2122)"], "note12b": ["TGCruelty"], "note5b": ["Ps. 40:2"], "note4b": ["Ps. 65:4", "Matt. 21:13"], "note4c": ["TGBeauty"], "note4a": ["1Ne. 10:21", "Morm. 7:7", "D&C 76:62 (5062)", "Moses 6:57"]}

64.HTML

{"note10a": ["TGTrust in God"], "note8b": ["Ps. 31:11"], "note3b": ["Jer. 9:3"], "note3a": ["Ps. 57:4"], "note8a": ["Prov. 18:7"], "note9a": ["TGGod, Works of"], "note6a": ["D&C 10:25 (2228)"], "note4a": ["Ps. 11:2"], "note5a": ["TGSecret Combinations"], "note5b": ["Alma 37:25", "D&C 88:108 (1089)"]}

38.HTML

{"note18b": ["TGRepent"], "note12a": ["TGDeceit"], "note10a": ["Ps. 88:9"], "note20a": ["Ps. 35:12"], "note18a": ["TGConfession"]}

36.HTML

{"note1a": ["TGCourage", "Fearful"], "note7a": ["2Ne. 22:2", "Mosiah 4:6", "Hel. 12:1"], "note9a": ["TGLight [noun]"], "note3a": ["TGDeceit"], "note8a": ["Ps. 16:11"], "note12a": ["Alma 5:57 (5758)", "D&C 1:9 (910)", "JSM 1:55 (31, 55)"], "note6a": ["Dan. 9:16"], "note5a": ["Alma 26:16", "Morm. 6:22", "D&C 97:2, 6"], "note5b": ["Ps. 71:19", "Moses 6:42", "Abr. 2:7 (78)"]}

23.HTML

{"note1a": ["TGJesus Christ, Good Shepherd", "Shepherd"], "note1b": ["Matt. 6:8", "Philip. 4:19", "TGContentment"], "note3b": ["1Sam. 12:22", "Ps. 31:3", "109:21", "1Jn. 2:12", "1Ne. 20:9"], "note3a": ["TGRighteousness"], "note2a": ["TGGuidance, Divine"], "note5a": ["TGAnointing"], "note4f": ["TGComfort"], "note6a": ["TGPeace of God"], "note4d": ["TGDeath"], "note4e": ["TGEvil"], "note4b": ["Ps. 138:7", "D&C 127:2 (12)"], "note4c": ["Job 3:5"], "note4a": ["TGWalking with God"]}

137.HTML

{"note8a": ["Isa. 47:1"], "note7b": ["Ezek. 35:5 (115)"], "note7a": ["Ezek. 25:12 (1214)"], "note4a": ["Neh. 2:3"]}

116.HTML

{"note1a": ["TGLove"], "note11a": ["TGRashness"], "note8b": ["Ps. 56:13"], "note3b": ["TGDamnation"], "note3a": ["TGPain"], "note8a": ["TGDeliver"], "note15a": ["TGDeath"], "note9a": ["Ps. 27:13"], "note16a": ["Ps. 119:125"], "note17a": ["Gen. 4:26", "1Chr. 16:8", "D&C 65:4"], "note12a": ["TGReward"], "note19a": ["Ps. 96:8", "100:4"], "note6a": ["Ps. 19:7"], "note5a": ["TGGod, Mercy of"]}

109.HTML

{"note21a": ["Ps. 23:3", "25:11", "31:3"], "note29a": ["Ps. 71:13"], "note7b": ["Prov. 28:9", "Mosiah 11:25 (2425)"], "note7a": ["James 2:13", "Hel. 8:25", "D&C 10:23 (2023)", "121:24 (2325)"], "note8a": ["Acts 1:20 (1620)"], "note2a": ["D&C 109:30 (2930)"], "note28a": ["TGCurse"], "note31b": ["D&C 56:18 (1518)"], "note31a": ["Ps. 16:8"], "note16a": ["Ps. 86:1", "Alma 5:55 (5456)", "Hel. 6:39 (3940)", "D&C 56:16"], "note13b": ["Mosiah 26:36", "Alma 5:57 (5658)", "D&C 20:83"], "note6a": ["Zech. 3:1"], "note13a": ["Ps. 21:10 (1011)", "37:28", "Isa. 14:20", "2Ne. 24:20", "D&C 121:15 (1315)"], "note14a": ["Ex. 20:5"], "note5a": ["1Jn. 3:15"], "note4a": ["JSTPs. 109:4"]}

110.HTML

{"note1a": ["Mark 12:36", "Luke 20:42"], "note1c": ["Heb. 1:13"], "note1b": ["Acts 2:34"], "note1e": ["TGEnemies"], "note1d": ["TGCelestial Glory"], "note2a": ["Isa. 11:1", "53:2 (13)", "D&C 113:3 (34)"], "note4d": ["TGJesus Christ, Types of, in Anticipation"], "note4b": ["1Sam. 15:35", "Ps. 135:14"], "note4c": ["TGHigh Priest, Melchizedek Priesthood", "Jesus Christ, Prophecies about", "Priesthood, Melchizedek"], "note4a": ["TGOath"]}

143.HTML

{"note1a": ["D&C 11:12 (1012)"], "note10b": ["TGGod, Spirit of"], "note10a": ["TGGod, Will of"], "note7a": ["Ps. 28:1", "88:4"], "note8b": ["Ps. 25:1", "86:4", "Lam. 3:41"], "note8a": ["Ex. 33:13 (1213)", "Ps. 25:4 (15)"], "note2a": ["TGJustification"], "note6a": ["Ps. 42:2 (13)", "Isa. 55:1 (13)", "John 4:14 (1315)", "7:37 (3739)"], "note6b": ["Ps. 63:1"], "note5a": ["TGMeditation"]}

4.HTML

{"note1a": ["Ps. 34:4", "Micah 7:7", "1Jn. 5:14 (1314)", "Mosiah 9:18", "Ether 1:40 (3940)"], "note1c": ["Gen. 35:3", "Ps. 118:5 (46)", "Isa. 25:4 (1, 4)"], "note1b": ["Ps. 97:6 (56)", "Rom. 1:17", "2Ne. 4:35", "Ether 9:22", "D&C 1:16"], "note3b": ["TGGodliness"], "note3a": ["TGSetting Apart"], "note8a": ["TGContentment"], "note2a": ["TGShame"], "note2b": ["TGVanity"], "note6a": ["Ps. 67:1", "119:135", "Alma 5:14", "3Ne. 19:25 (2425)"], "note5a": ["TGSacrifice"]}

119.HTML

{"note62a": ["Acts 16:25"], "note11a": ["Ps. 37:31"], "note139a": ["TGZeal"], "note50a": ["TGComfort"], "note37a": ["TGVanity"], "note169a": ["TGUnderstanding"], "note54a": ["Gen. 47:9"], "note46a": ["Matt. 10:18", "Acts 9:15", "D&C 1:23", "124:3 (3, 16, 107)"], "note35a": ["Ps. 112:1"], "note46b": ["Rom. 1:16"], "note106a": ["Neh. 10:29"], "note27a": ["D&C 50:12"], "note135a": ["Num. 6:25", "Ps. 4:6"], "note116a": ["Rom. 5:5", "Philip. 1:20"], "note105a": ["Alma 37:44 (3846)"], "note25b": ["D&C 88:49"], "note50b": ["TGAffliction"], "note25a": ["Ps. 44:25"], "note33a": ["Ex. 33:13"], "note130a": ["TGUnderstanding"], "note4a": ["TGDedication", "Diligence"], "note1a": ["TGBlessing"], "note105c": ["TGLight [noun]"], "note99a": ["TGUnderstanding"], "note48b": ["Ezek. 47:14"], "note48a": ["Ps. 63:4"], "note99b": ["TGMeditation"], "note142a": ["John 17:17"], "note19a": ["TGStranger"], "note115a": ["Matt. 7:23", "3Ne. 14:23"], "note85a": ["Ps. 57:6"], "note151a": ["Ps. 145:18"], "note15a": ["TGMeditation"], "note81a": ["Ps. 84:2"], "note158a": ["Ps. 95:10"], "note68a": ["Ps. 106:1"], "note71b": ["TGLearn"], "note71a": ["TGChastening"], "note64a": ["Ps. 33:5"], "note39a": ["1Ne. 22:21"], "note134a": ["TGOppression"], "note109a": ["Judg. 12:3 (13)"], "note45a": ["TGLiberty"], "note57a": ["Ps. 16:5", "Lam. 3:24"], "note10a": ["TGCommitment"], "note125a": ["Ps. 116:16"], "note138a": ["Isa. 45:19", "D&C 67:9"], "note165a": ["TGPeace", "Peace of God"], "note9a": ["TGPurification"], "note60a": ["TGProcrastination"], "note162a": ["Isa. 9:3"], "note55a": ["Mosiah 5:12 (1113)"], "note34a": ["TGUnderstanding"], "note133b": ["Ps. 19:13"], "note55b": ["Ps. 63:6"], "note111a": ["TGCheerful"], "note119a": ["Ezek. 22:18 (1722)"], "note132a": ["TGGod, Mercy of"], "note101a": ["TGSelf-Mastery"], "note117a": ["Ezek. 34:27"], "note36a": ["Ezek. 33:31 (3033)", "Luke 12:15 (1521)", "1Tim. 6:10"], "note143a": ["TGPain"], "note89a": ["Ps. 148:6", "1Pet. 1:25", "D&C 1:38"], "note105b": ["Prov. 6:23"], "note32a": ["2Cor. 6:11 (11, 13)"], "note24a": ["2Ne. 4:15"], "note108a": ["Heb. 13:15"], "note59a": ["Luke 15:17"], "note133a": ["Ps. 17:5"], "note127a": ["Ps. 19:10 (910)"], "note137a": ["Ezra 9:15"], "note176a": ["TGSheep"], "note114a": ["Ps. 32:7"], "note84c": ["D&C 121:5 (16)"], "note2a": ["TGChildren of Light"], "note84a": ["Ps. 39:4"], "note28a": ["Jacob 6:7"], "note168a": ["Prov. 5:21"], "note78a": ["TGShame"], "note67b": ["Alma 36:17 (1221)", "D&C 101:2"], "note38a": ["2Sam. 7:25"], "note90a": ["Ps. 89:1"], "note72b": ["Ps. 19:10 (910)"], "note67a": ["Jer. 31:19 (1819)"], "note53a": ["Ezra 9:4 (14)"]}

53.HTML

{"note1a": ["Ps. 14:1 (17)"], "note1b": ["Rom. 3:10 (1012)"], "note5a": ["Lev. 26:17"]}

96.HTML

{"note1a": ["1Chr. 16:23"], "note1b": ["D&C 25:12", "84:98 (97102)"], "note8b": ["Ps. 116:19"], "note8a": ["Moses 4:2"], "note2a": ["TGSalvation"], "note9a": ["TGHoliness"], "note10a": ["TGJesus Christ, Judge"], "note12a": ["Isa. 35:1"], "note6a": ["TGHonor"], "note13a": ["TGJesus Christ, Jehovah"], "note5a": ["TGIdolatry"]}

94.HTML

{"note1a": ["TGVengeance"], "note11a": ["TGGod, Omniscience of"], "note11c": ["TGVanity"], "note11b": ["Ezek. 20:32"], "note9a": ["Job 22:13 (1314)", "D&C 88:41"], "note3a": ["Alma 40:26", "D&C 29:41", "121:8 (18)"], "note2a": ["TGJesus Christ, Judge"], "note2b": ["TGReward"], "note20a": ["TGInjustice"], "note12a": ["TGChastening"], "note6a": ["3Ne. 24:5"], "note14a": ["Deut. 31:6", "3Ne. 22:10 (710)", "D&C 35:25"]}

84.HTML

{"note11e": ["TGWalking with God"], "note11d": ["Rev. 21:7", "D&C 76:59 (5064)"], "note11a": ["3Ne. 25:2"], "note7a": ["Deut. 16:16"], "note11c": ["TGGrace"], "note11b": ["Prov. 30:5"], "note2a": ["Ps. 119:81"], "note5a": ["TGStrength"]}

28.HTML

{"note1a": ["Ps. 83:1"], "note1b": ["Ps. 88:4", "143:7", "Prov. 1:12", "1Ne. 14:3", "2Ne. 24:15"], "note7a": ["TGFaith"], "note3c": ["TGGuile", "Hypocrisy"], "note3b": ["TGPeace"], "note3a": ["Prov. 26:25"], "note2a": ["D&C 90:4 (15)", "124:39 (3839)", "126 (12526)"], "note5a": ["Isa. 5:12 (1112)"], "note4a": ["TGGood Works"]}

63.HTML

{"note1a": ["Isa. 26:9"], "note1c": ["Ps. 143:6 (512)"], "note1b": ["Ps. 42:2"], "note3a": ["D&C 25:10 (10, 16)"], "note6a": ["Ps. 42:8", "119:55", "149:5"], "note6b": ["TGMeditation"], "note4a": ["Ps. 119:48", "134:2 (13)"]}

136.HTML

{"note1a": ["TGThanksgiving"], "note11a": ["Ex. 12:42 (4142)", "13:18 (322)"], "note20a": ["Ps. 135:11"], "note19a": ["Ps. 135:11 (1011)"], "note8a": ["TGAstronomy"], "note2a": ["Deut. 10:17 (1721)"], "note22a": ["Ps. 135:12"], "note15a": ["Hel. 8:11 (1113)"], "note12a": ["Deut. 4:34 (3335)"], "note25b": ["TGFlesh and Blood"], "note6a": ["TGCreation"], "note25a": ["D&C 104:17 (1518)", "Moses 2:29 (2830)"], "note5a": ["TGGod, Wisdom of"]}

140.HTML

{"note1a": ["TGDeliver"], "note3a": ["Rom. 3:13 (918)"], "note5a": ["Ps. 142:3"], "note13a": ["TGGod, Presence of"]}

18.HTML

{"note50a": ["Ps. 20:6", "D&C 109:80"], "note46a": ["Deut. 5:24"], "note46b": ["TGRock"], "note27a": ["2Sam. 22:28", "Isa. 49:13", "1Ne. 21:13"], "note27b": ["2Ne. 20:33", "3Ne. 25:1", "D&C 29:9"], "note6a": ["TGSuffering"], "note6b": ["Jonah 2:7"], "note1a": ["Alma 13:29", "D&C 20:31", "76:116"], "note3a": ["TGWorthiness"], "note47a": ["Ps. 47:3"], "note31a": ["TGRock"], "note30a": ["TGGod, Perfection of"], "note30b": ["2Sam. 22:31", "Ps. 12:6 (67)"], "note32a": ["1Ne. 7:12", "Alma 26:12"], "note24a": ["TGCleanliness"], "note49a": ["Rom. 15:9"], "note2d": ["Heb. 2:13"], "note2a": ["TGComfort", "Rock"], "note2b": ["TGProtection, Divine"], "note2c": ["TGStrength"], "note28b": ["TGEdification"], "note41a": ["Jer. 11:11 (1011)", "Mosiah 21:15", "D&C 101:7"]}

135.HTML

{"note11a": ["Num. 21:24 (2126)", "Ps. 136:19"], "note11c": ["Josh. 12:7 (724)"], "note11b": ["Num. 21:35 (3335)", "Ps. 136:20"], "note15a": ["TGIdolatry"], "note15b": ["TGHeathen"], "note12a": ["Josh. 13:6", "Ps. 136:22"], "note13a": ["Ex. 3:15"], "note14a": ["Ps. 110:4", "Joel 2:13"], "note4b": ["TGPeculiar People"], "note4c": ["TGTreasure"], "note4a": ["Gen. 32:28 (2432)", "3Ne. 5:21 (2126)", "D&C 49:24 (2325)", "52:2 (13)"]}

19.HTML

{"note11a": ["TGWarn"], "note11b": ["Mosiah 2:22", "D&C 14:7", "58:2"], "note8b": ["Ps. 12:6"], "note8c": ["TGEdification"], "note8a": ["TGCheerful"], "note4a": ["Rom. 10:18", "2Ne. 31:15", "D&C 64:31"], "note1a": ["TGHeaven", "Nature, Earth"], "note7f": ["TGWisdom"], "note1c": ["TGGlory", "God, Glory of"], "note1b": ["Ps. 50:6"], "note7c": ["TGConversion", "Scriptures, Value of"], "note1d": ["D&C 104:14"], "note7a": ["TGAbundant Life", "God, Law of"], "note3a": ["TGLanguage"], "note13c": ["TGTransgress"], "note13b": ["Ps. 119:133"], "note10b": ["Ps. 119:72"], "note7g": ["Ps. 116:6"], "note10a": ["Ps. 119:127"], "note9a": ["Job 34:12", "2Ne. 9:15", "30:9"], "note9b": ["TGTruth"], "note7e": ["Alma 32:34 (3234)"], "note7d": ["TGTestimony"], "note7b": ["TGPerfection"], "note12a": ["TGPurification"], "note12b": ["Ps. 90:8", "D&C 1:3"], "note14b": ["TGStrength"], "note14a": ["TGMeditation"]}

15.HTML

{"note1a": ["Ps. 24:3 (35)", "1Ne. 15:33 (3336)", "Mosiah 15:23 (1926)", "D&C 76:62 (5070)", "Moses 6:57 (5559)"], "note3b": ["TGNeighbor"], "note3a": ["TGBackbiting", "Gossip"], "note5a": ["TGUsury"], "note2a": ["TGWalking with God"]}

76.HTML

{"note9a": ["Zeph. 2:3 (13)"], "note10a": ["TGSelf-Mastery"], "note11a": ["TGVow"], "note7a": ["Ps. 130:3", "Rev. 6:17"], "note11b": ["Ps. 68:29"]}

87.HTML

{"note1a": ["Isa. 28:16"], "note2b": ["TGZion"]}

30.HTML

{"note11a": ["Jer. 31:13"], "note7a": ["Ps. 104:29", "D&C 84:23 (2123)"], "note11b": ["Isa. 61:3"], "note3b": ["Ps. 16:10"], "note9c": ["Ps. 6:5"], "note2a": ["TGHeal"], "note3a": ["Ps. 86:13", "Acts 2:34", "D&C 132:39"], "note5b": ["TGJoy"]}

138.HTML

{"note7a": ["Ps. 23:4 (16)", "D&C 127:2 (12)"], "note8b": ["Isa. 64:8"], "note3a": ["Enos 1:4 (111)"], "note2a": ["TGWorship"], "note5a": ["TGSinging"], "note4a": ["D&C 124:3 (211)"]}

72.HTML

{"note10b": ["Isa. 43:3"], "note18a": ["Ps. 41:13", "106:48"], "note7b": ["D&C 45:66", "54:10"], "note7a": ["TGRighteousness"], "note9a": ["D&C 88:104 (1046)"], "note14b": ["TGLife, Sanctity of"], "note8a": ["Zech. 9:10"], "note2a": ["TGJesus Christ, Judge", "Judgment"], "note19b": ["1Ne. 22:24 (2224)", "Alma 5:50", "3Ne. 26:3", "D&C 7:3"], "note16a": ["Job 5:25"], "note17a": ["Luke 1:48 (4648)"], "note19a": ["Num. 14:21", "D&C 65:2"], "note14a": ["TGRedemption"], "note5a": ["Ps. 89:36 (3637)"], "note4a": ["D&C 101:24 (2324)"]}

147.HTML

{"note1a": ["Ps. 33:1"], "note11a": ["TGPleasure"], "note7a": ["TGThanksgiving"], "note20a": ["Amos 3:2 (12)"], "note4b": ["Isa. 40:26"], "note8a": ["TGNature, Earth"], "note2a": ["Deut. 30:3 (13)"], "note2b": ["Matt. 24:31"], "note5a": ["TGGod, Omniscience of", "Understanding"], "note4a": ["TGAstronomy"]}

88.HTML

{"note9a": ["Ps. 38:10"], "note14a": ["2Sam. 11:27 (127)", "12:11 (125)", "1Chr. 21:8 (18)"], "note9b": ["TGAffliction"], "note5a": ["Ps. 31:12"], "note4a": ["Ps. 28:1", "143:7", "2Ne. 24:15"]}

129.HTML

{"note6a": ["2Kgs. 19:26"], "note2a": ["2Cor. 4:9 (810)"]}

6.HTML

{"note6a": ["2Ne. 33:3"], "note8a": ["TGSin"], "note5a": ["Ps. 30:9"], "note2b": ["TGHeal", "Sickness"]}

107.HTML

{"note29a": ["Matt. 8:26 (2427)"], "note10a": ["TGDarkness, Spiritual"], "note11a": ["TGRebellion"], "note43a": ["Hosea 14:9 (89)"], "note32a": ["TGChurch"], "note34a": ["Ezek. 12:19"], "note2a": ["Deut. 7:8 (78)", "3Ne. 9:17 (1517)"], "note22a": ["Lev. 7:12"], "note22b": ["TGCheerful"], "note27a": ["2Ne. 28:14"], "note35a": ["TGEarth, Renewal of"], "note16a": ["Isa. 45:2"], "note6a": ["Jonah 2:7"], "note6b": ["TGAdversity"], "note14a": ["Job 3:5"], "note4b": ["1Ne. 22:4"], "note4a": ["Jer. 2:6"]}

134.HTML

{"note1a": ["1Chr. 9:33"], "note3a": ["Ps. 128:5"], "note2a": ["Ps. 63:4 (24)"]}

11.HTML

{"note1a": ["JSTPs. 11:15 (Appendix)"], "note7a": ["TGRighteousness"], "note4b": ["TGHeaven"], "note3a": ["TGCornerstone"], "note2a": ["Ps. 64:4 (16)"], "note6a": ["Isa. 3:11 (911)"], "note5a": ["TGTest"], "note4a": ["TGKingdom of God, in Heaven"]}

33.HTML

{"note1a": ["Ps. 147:1", "Alma 26:8", "D&C 136:28 (2829)"], "note10b": ["TGHeathen"], "note10a": ["Neh. 4:15"], "note11a": ["2Ne. 9:16", "D&C 1:38 (3739)", "Moses 1:4"], "note22a": ["TGHope"], "note9a": ["Gen. 1:3", "Ps. 148:5 (56)", "2Cor. 4:6", "D&C 38:3", "Moses 2:5 (45)"], "note17b": ["Amos 2:15"], "note3a": ["Ps. 40:3", "D&C 25:12"], "note18a": ["Ps. 34:15", "1Pet. 3:12", "D&C 1:1", "38:7 (78)"], "note15a": ["1Ne. 15:33 (2636)", "3Ne. 27:25 (2327)"], "note20a": ["Deut. 33:29 (2629)", "D&C 35:14 (1314)"], "note16a": ["Ps. 44:6", "2Ne. 4:34"], "note17a": ["Prov. 21:31"], "note12a": ["Moses 1:26 (2526)"], "note19a": ["Ps. 37:19 (1819)"], "note6a": ["JSTJohn 1:116 (Appendix)", "TGJesus Christ, Creator"], "note6b": ["TGHeaven"], "note14a": ["Isa. 63:15"], "note5a": ["TGRighteousness"], "note5c": ["Ps. 119:64"], "note4a": ["D&C 84:45"]}

16.HTML

{"note1a": ["TGTrust in God"], "note10b": ["Ps. 30:3"], "note10a": ["2Ne. 4:31 (3132)"], "note11a": ["TGGod, Presence of"], "note11c": ["TGJoy"], "note10d": ["TGJesus Christ, Resurrection"], "note10c": ["TGDamnation", "Hell", "Spirits in Prison"], "note8b": ["Ps. 109:31"], "note8a": ["Acts 2:25 (2531)"], "note11b": ["TGExaltation"], "note9a": ["TGResurrection"], "note4a": ["Ex. 34:14 (1317)", "2Ne. 9:37 (3738)", "Alma 7:6", "D&C 124:84", "Abr. 1:11 (1112, 15)"], "note5a": ["Ps. 73:26", "119:57"], "note11d": ["Ps. 36:8"], "note5b": ["Deut. 18:2"]}

17.HTML

{"note15a": ["TGRighteousness"], "note14b": ["Ps. 73:12"], "note3a": ["TGTest"], "note15b": ["TGResurrection"], "note5a": ["Ps. 119:133"]}

40.HTML

{"note1a": ["Ps. 130:5", "D&C 98:2 (23)"], "note11a": ["Ps. 61:7"], "note8b": ["TGGod, Will of"], "note3b": ["TGSinging"], "note3a": ["Ps. 33:3"], "note8a": ["TGObjectives"], "note2a": ["Ps. 27:5"], "note15a": ["TGShame"], "note12a": ["Ps. 73:26"], "note6a": ["1Sam. 15:22"], "note5a": ["Ps. 92:5", "Morm. 9:16 (1620)", "D&C 76:114", "Moses 1:4 (35)"]}

49.HTML

{"note1a": ["Ps. 78:1"], "note10a": ["Eccl. 2:16"], "note11a": ["Gen. 4:17"], "note9a": ["Ps. 89:48"], "note8a": ["TGWorth of Souls"], "note18a": ["Deut. 29:19 (1820)"], "note15a": ["Hosea 13:14", "Mosiah 27:24 (2426)", "D&C 93:38", "Moses 5:9", "AofF 1:3"], "note15b": ["TGEternal Life"], "note6a": ["TGTreasure"], "note14a": ["Mal. 4:3 (23)", "Rev. 2:26"], "note4a": ["TGProblem-Solving"]}

80.HTML

{"note1a": ["TGJesus Christ, Good Shepherd", "Shepherd"], "note1b": ["TGCherubim"], "note8b": ["Ex. 20:2", "1Ne. 17:23 (2325)", "Moses 1:26"], "note8c": ["Num. 21:3 (13)", "Acts 13:19 (1719)"], "note3a": ["Lam. 5:21"], "note8a": ["TGVineyard of the Lord"], "note10a": ["Gen. 13:16 (1416)"], "note12a": ["Rom. 11:20 (1524)"], "note6a": ["TGStrife"], "note19a": ["1Ne. 22:12", "D&C 35:25"]}

61.HTML

{"note3a": ["Prov. 18:10"], "note8a": ["Ps. 50:23"], "note5a": ["TGVow"], "note2a": ["TGRock"], "note7a": ["Ps. 40:11"]}

99.HTML

{"note1a": ["TGCherubim"], "note7a": ["Ex. 33:9", "Num. 14:14", "Ps. 78:14", "105:39", "1Cor. 10:1"], "note9a": ["TGWorship"], "note3b": ["Luke 1:49"], "note3a": ["Rev. 15:4"], "note9b": ["Ps. 2:6"], "note5a": ["1Chr. 28:2"]}

43.HTML

{"note3a": ["TGLight [noun]"], "note1b": ["TGDeceit"], "note2a": ["TGMourning"]}

97.HTML

{"note1a": ["1Chr. 16:31"], "note10b": ["TGEvil"], "note10a": ["TGHate"], "note11a": ["D&C 50:24"], "note7b": ["Ex. 20:4"], "note7a": ["Jacob 7:8 (615)"], "note10c": ["Ps. 121:7", "145:20 (121)", "1Ne. 17:35 (3335)", "D&C 82:10 (810)"], "note9a": ["Ps. 83:18"], "note8a": ["Ps. 48:11"], "note2a": ["1Kgs. 8:12"], "note12a": ["TGJoy"], "note6a": ["Ps. 50:6"], "note6b": ["Ps. 4:1"], "note4a": ["Ps. 77:18"], "note5a": ["Judg. 5:5", "Nahum 1:5"], "note12b": ["D&C 59:21"], "note5b": ["Ps. 68:2", "Micah 1:4"]}

71.HTML

{"note9a": ["TGOld Age"], "note24a": ["TGShame"], "note3a": ["Ps. 78:35", "Hel. 5:12", "D&C 6:34", "Moses 7:53"], "note20a": ["D&C 33:16"], "note16a": ["TGStrength"], "note21a": ["TGComfort"], "note13a": ["Ps. 109:29"], "note19b": ["Ps. 36:5"], "note19a": ["TGGod, Perfection of"], "note19c": ["1Kgs. 8:23", "Jer. 10:6"], "note4a": ["TGCruelty"]}

125.HTML

{"note1a": ["TGTrust in God"], "note3a": ["TGWickedness"], "note1b": ["1Jn. 2:17"], "note5a": ["Ps. 128:6", "Gal. 6:16"]}

102.HTML

{"note25a": ["TGCreation"], "note11a": ["1Chr. 29:15", "Ps. 144:4"], "note11b": ["Isa. 40:6 (68)"], "note2a": ["D&C 121:1 (18)"], "note27b": ["TGEternity"], "note28a": ["2Ne. 29:14", "D&C 132:30", "Moses 7:52 (5053)"], "note27a": ["TGGod, Eternal Nature of"], "note26a": ["Isa. 34:4", "51:6", "2Pet. 3:10 (1012)"], "note16a": ["TGJesus Christ, Second Coming"], "note17a": ["Ezek. 36:37"], "note12a": ["TGImmortality"], "note18b": ["Ps. 48:13"], "note13b": ["TGZion"], "note13a": ["Isa. 14:1"], "note18a": ["TGScriptures, Writing of"]}

32.HTML

{"note1a": ["Rom. 4:7 (78)"], "note10b": ["TGTrust in God"], "note1c": ["TGRemission of Sins"], "note1b": ["TGSin", "Transgress"], "note7a": ["Ps. 91:1", "119:114"], "note8a": ["TGTeaching"], "note2a": ["TGGuile", "Sincere"], "note10a": ["Prov. 13:21", "Rom. 2:9", "Alma 41:10", "D&C 1:3", "TGDespair"], "note6a": ["TGGodliness"], "note5a": ["TGConfession"], "note5c": ["TGForgive"], "note5b": ["TGTransgress"]}

141.HTML

{"note1a": ["Ps. 70:5"], "note7a": ["Ezek. 6:5"], "note3a": ["Ps. 39:1"], "note8a": ["Ps. 25:15", "D&C 4:5"], "note2a": ["Rev. 5:8 (110)"], "note2b": ["Ex. 30:7", "37:29"], "note2c": ["Ex. 29:41 (3842)"], "note5c": ["Prov. 9:8"], "note5b": ["Prov. 27:6"]}

24.HTML

{"note1a": ["Ex. 9:29", "Deut. 10:14", "Ps. 89:11", "1Cor. 10:26", "TGNature, Earth"], "note1b": ["1Chr. 29:14"], "note7b": ["TGJesus Christ, Second Coming"], "note7a": ["JSTPs. 24:710 (Appendix)"], "note8b": ["Alma 5:50"], "note3b": ["TGHoliness", "Temple"], "note3a": ["Ps. 15:1 (15)", "1Ne. 15:33 (3336)", "Mosiah 15:23 (1926)", "D&C 76:62 (5070)", "Moses 6:57 (5559)"], "note8a": ["TGKingdom of God, in Heaven"], "note10a": ["TGJesus Christ, Prophecies about"], "note4f": ["TGSwearing"], "note4g": ["TGDeceit", "Honesty"], "note4d": ["TGHeart"], "note4e": ["TGVanity"], "note4b": ["1Tim. 2:8"], "note4c": ["TGPurity", "Virtue"], "note4a": ["TGChastity", "Cleanliness"]}

5.HTML

{"note1a": ["TGMeditation"], "note9b": ["Rom. 3:13"], "note7b": ["1Kgs. 8:48 (4448)", "Dan. 6:10", "Jonah 2:4"], "note9a": ["Luke 11:44", "Acts 23:3"], "note4b": ["TGEvil"], "note3a": ["Alma 37:37 (3637)"], "note8a": ["TGEnemies"], "note2a": ["Isa. 43:15"], "note10a": ["Mosiah 15:26 (2627)", "Hel. 8:25"], "note12a": ["2Ne. 9:18", "Alma 40:12 (1214)", "D&C 29:27 (2728)", "88:26 (2526)"], "note5a": ["Alma 5:32 (3238)"], "note9c": ["TGFlatter"], "note4a": ["Job 27:4 (45)"]}

79.HTML

{"note1a": ["Lam. 5:2"], "note1c": ["2Kgs. 25:9"], "note1b": ["Lam. 1:10"], "note3b": ["Jer. 14:16"], "note3a": ["1Ne. 1:4 (4, 18)", "D&C 45:19 (1621)"], "note13b": ["Alma 5:41 (3842)"], "note13a": ["Isa. 64:9"], "note5a": ["2Ne. 25:17 (1518)"]}

86.HTML

{"note1b": ["Ps. 109:16 (1516)", "3Ne. 12:3", "D&C 56:18 (1718)"], "note11a": ["1Kgs. 8:36"], "note7a": ["Ps. 77:2"], "note9a": ["Isa. 66:18 (1819)"], "note9c": ["Ps. 65:2"], "note8a": ["Ex. 15:11"], "note9b": ["D&C 88:104"], "note15a": ["Num. 14:18", "Ps. 103:8"], "note15c": ["Ps. 62:12"], "note15b": ["Ps. 145:8"], "note13a": ["Ps. 30:3", "Acts 2:34"], "note14a": ["Ps. 54:3"], "note5a": ["TGForgive"], "note4a": ["Ps. 25:1", "143:8"]}

131.HTML

{"note1a": ["TGHaughtiness"], "note1b": ["Prov. 30:13"]}

133.HTML

{"note1a": ["TGFamily, Love within"], "note3b": ["Deut. 28:8 (19)"], "note3a": ["Deut. 3:9 (89)"], "note1b": ["TGCommon Consent", "Unity"]}

29.HTML

{"note10b": ["TGKingdom of God, in Heaven"], "note10a": ["TGFlood"], "note11a": ["TGStrength"], "note11b": ["TGPeace"], "note3a": ["TGNature, Earth"], "note2a": ["TGBeauty"]}

45.HTML

{"note7a": ["TGCheerful"], "note3a": ["Ps. 21:5"], "note8a": ["John 19:39"], "note2a": ["Luke 4:22"], "note6a": ["TGKingdom of God, in Heaven"], "note13a": ["TGApparel"], "note4a": ["TGRighteousness"]}

73.HTML

{"note1a": ["TGPurity"], "note20b": ["2Ne. 9:42 (4142)"], "note11a": ["Job 22:13"], "note7a": ["D&C 68:31"], "note20a": ["Ps. 78:65 (6566)"], "note3a": ["TGEnvy"], "note8a": ["2Pet. 2:18 (1019)"], "note26d": ["Ps. 16:5"], "note22a": ["Eccl. 3:18"], "note26c": ["TGStrength"], "note26b": ["Ps. 40:12 (1213)"], "note26a": ["TGFlesh and Blood"], "note17b": ["2Ne. 30:10", "D&C 29:17", "JSM 1:55"], "note17a": ["2Kgs. 19:1", "Ps. 20:2"], "note21a": ["TGConscience"], "note12a": ["Job 12:6", "Ps. 17:14", "Hel. 7:5 (46)"], "note12b": ["TGWorldliness"], "note24a": ["TGConscience"], "note13a": ["TGWash"], "note24c": ["TGEternal Life"], "note24b": ["TGCounsel"]}

85.HTML

{"note1a": ["Deut. 32:43"], "note11a": ["TGTruth"], "note11b": ["TGBook of Mormon"], "note8b": ["2Pet. 2:20", "D&C 42:26"], "note8a": ["TGPeace of God"], "note9a": ["Isa. 46:13", "51:5"], "note12a": ["James 1:17", "Alma 5:40"], "note4a": ["TGAnger"]}

90.HTML

{"note8b": ["Ps. 19:12"], "note8a": ["Ps. 130:3", "Jer. 16:17"], "note2a": ["D&C 38:1"], "note2b": ["TGEternity", "God, Eternal Nature of"], "note16a": ["Moses 1:39"], "note17a": ["TGBeauty"], "note5a": ["D&C 124:7"], "note4a": ["TGTime"]}

100.HTML

{"note3b": ["TGSheep"], "note3a": ["Eph. 2:10"], "note2a": ["TGCheerful"], "note2b": ["TGSinging"], "note4b": ["Ps. 116:19"], "note4a": ["TGThanksgiving"]}

150.HTML

{"note1a": ["Alma 15:17"]}

112.HTML

{"note1a": ["TGReverence"], "note1c": ["TGChildren of Light"], "note1b": ["Ps. 119:35"], "note7a": ["TGCommitment"], "note9a": ["TGAlmsgiving", "Generosity"], "note3a": ["TGAbundant Life"], "note2a": ["D&C 104:33"], "note4a": ["TGLight [noun]"]}

14.HTML

{"note1a": ["JSTPs. 14:17 (Appendix)"], "note1c": ["Ps. 10:4 (211)"], "note1b": ["Ps. 53:1 (16)", "Prov. 10:21"], "note1e": ["Gen. 6:5 (56)", "2Tim. 3:8", "D&C 10:21 (2023)", "112:23 (2324)"], "note1d": ["Alma 30:40 (3741)"], "note7a": ["Zeph. 2:7"], "note1f": ["Rom. 3:10 (1012)"], "note3b": ["Mosiah 16:3 (35)"], "note3a": ["TGFilthiness"], "note6a": ["TGShame"]}

68.HTML

{"note1a": ["Num. 10:35"], "note29a": ["Ps. 76:11"], "note1b": ["TGHate"], "note7a": ["Judg. 5:4"], "note8b": ["Judg. 5:5"], "note3a": ["Matt. 13:43"], "note20b": ["Deut. 32:39"], "note2a": ["Ps. 97:5", "Micah 1:4"], "note2b": ["TGGod, Presence of"], "note23a": ["Ps. 58:10"], "note20a": ["Isa. 17:10"], "note9a": ["Ezek. 22:24", "34:26"], "note31a": ["Isa. 19:21"], "note21a": ["Hab. 3:13", "Moses 4:21 (2021)"], "note18b": ["TGJesus Christ, Prophecies about"], "note6a": ["TGRebellion"], "note18a": ["Acts 1:9", "Eph. 4:8", "D&C 88:6"], "note5a": ["Ps. 10:14", "3Ne. 24:5", "D&C 136:8"], "note4a": ["TGJesus Christ, Jehovah"]}

130.HTML

{"note1a": ["Ps. 69:2"], "note7a": ["Isa. 55:7"], "note3b": ["Ps. 76:7"], "note3a": ["Ps. 90:8"], "note8a": ["Ps. 25:22"], "note5a": ["Ps. 40:1"], "note4b": ["1Kgs. 8:40 (3940)"], "note4a": ["TGForgive"]}

124.HTML

{"note3a": ["Ps. 56:1 (12)", "Prov. 1:12"], "note8a": ["Ps. 121:2"], "note7a": ["Ps. 91:3"]}

37.HTML

{"note11a": ["TGMeek"], "note11c": ["TGJoy"], "note11b": ["TGEarth, Destiny of"], "note8b": ["TGAnger"], "note37b": ["TGPeace"], "note8a": ["TGSelf-Mastery"], "note31b": ["TGHeart"], "note31a": ["Ps. 119:11", "D&C 88:62"], "note21a": ["TGBorrow", "Debt"], "note6a": ["Jer. 51:10"], "note25a": ["Matt. 10:31 (2931)", "1Ne. 17:3 (15, 1214)", "Mosiah 2:41"], "note19a": ["Ps. 33:19"], "note4a": ["Enos 1:12", "Alma 29:4"], "note1a": ["TGWorldliness"], "note7a": ["TGPatience"], "note3a": ["TGTrust in God"], "note37a": ["TGPerfection"], "note13a": ["TGLaughter"], "note10a": ["Job 24:24"], "note9a": ["TGDeath, Spiritual, First"], "note9b": ["TGEarth, Destiny of"], "note22b": ["TGCurse"], "note22a": ["TGEarth, Destiny of"], "note34a": ["Ps. 27:14", "D&C 98:2 (23)"], "note30a": ["Prov. 10:11"], "note18a": ["TGInheritance"], "note5a": ["TGCommitment", "Dedication"], "note39a": ["TGSalvation"], "note5b": ["Alma 37:36 (3537)"], "note2a": ["Alma 50:20", "D&C 1:14", "29:9 (912)"], "note28b": ["Ps. 21:10 (1011)", "109:13", "2Ne. 24:20", "D&C 121:15 (1122)"], "note16a": ["Prov. 15:16"], "note16b": ["TGRighteousness"], "note16c": ["TGTreasure"]}

82.HTML

{"note1a": ["TGGod, Access to"], "note7a": ["1Cor. 15:22"], "note3a": ["TGCitizenship"], "note8a": ["TGJesus Christ, Judge"], "note2a": ["Prov. 18:5"], "note6a": ["TGMan, a Spirit Child of Heavenly Father", "Man, Potential to Become like Heavenly Father", "Sons and Daughters of God", "Spirit Creation"], "note5a": ["TGWalking in Darkness"]}

103.HTML

{"note21a": ["TGPleasure"], "note8b": ["Gen. 19:16", "D&C 76:5"], "note3b": ["TGSickness"], "note3a": ["TGForgive"], "note8a": ["Ps. 86:15"], "note9a": ["TGGod, Indignation of"], "note17a": ["TGGod, Mercy of"], "note8c": ["TGAnger"], "note13b": ["TGFamily"], "note13a": ["Ezek. 24:21", "Mal. 3:17", "TGGod, Mercy of"], "note14a": ["TGMortality"], "note5a": ["Isa. 40:31"], "note4a": ["TGRedemption"]}

46.HTML

{"note1a": ["TGRefuge"], "note10b": ["Job 37:14", "D&C 101:16"], "note10a": ["TGSilence"], "note7a": ["Isa. 8:10 (8, 10)"], "note10c": ["Isa. 2:11 (11, 17)"], "note9a": ["TGPeace"], "note5a": ["Deut. 23:14", "Isa. 12:6"]}

69.HTML

{"note23a": ["TGSpiritual Blindness"], "note35a": ["Isa. 65:9"], "note27a": ["Matt. 27:25 (2425)"], "note31a": ["1Sam. 15:22"], "note21a": ["Matt. 27:34", "Mark 15:36", "Luke 23:36", "John 19:29 (2829)", "TGJesus Christ, Prophecies about"], "note25a": ["Jer. 12:7", "22:5", "Matt. 23:38", "Acts 1:20 (1620)"], "note19a": ["TGReproach"], "note19b": ["TGShame"], "note18a": ["James 4:8 (78)", "D&C 88:63"], "note15a": ["Num. 16:33 (3133)"], "note20a": ["Mark 14:33 (3241)", "TGDespair", "Jesus Christ, Prophecies about"], "note4a": ["TGHate"], "note10a": ["TGFast, Fasting"], "note9a": ["John 2:17 (1417)", "TGJesus Christ, Prophecies about", "Zeal"], "note9b": ["TGReproach"], "note22a": ["Isa. 8:14 (1315)", "Rom. 11:9 (912)", "2Ne. 18:14 (1315)", "D&C 10:26"], "note30a": ["Alma 34:38", "D&C 46:7"], "note32a": ["D&C 101:38"], "note5a": ["TGFoolishness"], "note2a": ["Ps. 130:1", "D&C 122:7 (78)"], "note28a": ["TGBook of Life", "Record Keeping"], "note16a": ["TGGod, Mercy of"], "note12a": ["Job 30:9"]}

51.HTML

{"note1a": ["Ps. 25:7"], "note10b": ["Lam. 5:21"], "note1c": ["Acts 3:19"], "note1b": ["TGKindness"], "note11a": ["TGDeath, Spiritual, First"], "note1d": ["TGSin"], "note7a": ["Num. 19:18"], "note11b": ["TGHoly Ghost, Loss of"], "note3b": ["TGSin"], "note3a": ["TGConfession"], "note2a": ["Mosiah 26:29 (2930)", "TGPurification"], "note18a": ["TGPleasure"], "note17b": ["TGContrite Heart"], "note10a": ["TGCleanliness", "Purification", "Repent"], "note5a": ["TGConceived in Sin"], "note16a": ["1Sam. 15:22"], "note17a": ["Hosea 14:2 (13)", "3Ne. 9:20 (1920)"], "note13a": ["TGConversion"], "note14a": ["TGDeliver"], "note4b": ["Rom. 3:4", "D&C 97:2"], "note4a": ["2Sam. 12:13 (914)"]}

101.HTML

{"note7b": ["TGHonesty", "Lying"], "note7a": ["TGDeceit"], "note4b": ["Matt. 7:23"], "note2a": ["Jacob 6:12 (1112)"], "note6a": ["TGWalking with God"], "note6b": ["TGPerfection"], "note4a": ["Prov. 11:20", "17:20"], "note5a": ["TGBackbiting", "Slander"], "note5b": ["Isa. 1:13"]}

114.HTML

{"note1a": ["Ex. 13:3"], "note3a": ["Ex. 14:21 (2122)", "Ps. 78:13"], "note8a": ["Ex. 17:6"]}

8.HTML

{"note7a": ["TGSheep"], "note3c": ["TGGod, Works of"], "note3b": ["TGHeaven"], "note3a": ["TGBeauty"], "note2a": ["TGChildren"], "note3d": ["TGAstronomy"], "note6a": ["TGMan, Potential to Become like Heavenly Father"], "note5b": ["TGMan, Potential to Become like Heavenly Father", "Worth of Souls"], "note4b": ["1Ne. 2:16", "19:11", "Alma 17:10", "D&C 5:16"], "note4a": ["Job 7:17 (1718)", "Ps. 144:3 (115)", "Heb. 2:6 (68)", "TGMortality"]}

120.HTML

{"note7a": ["TGWar"], "note5a": ["Gen. 10:2", "Ezek. 27:13"], "note2a": ["TGDeceit"], "note5c": ["Isa. 60:7"], "note5b": ["Jer. 49:29 (2829)"]}

7.HTML

{"note11a": ["TGGod, Indignation of"], "note9a": ["TGTest"], "note8a": ["TGJesus Christ, Judge"], "note15a": ["1Ne. 14:3 (13)", "22:14 (1314)"], "note16a": ["Ps. 9:16", "Gal. 6:7", "Alma 3:26", "9:28", "D&C 6:33"], "note14a": ["Job 15:35", "Isa. 59:4"]}

41.HTML

{"note1a": ["TGPoor"], "note9a": ["Acts 1:16 (1617)"], "note3b": ["TGSickness"], "note9b": ["TGJesus Christ, Betrayal of"], "note2a": ["Deut. 6:24"], "note13a": ["Ps. 72:18", "Alma 26:8"], "note4a": ["Mosiah 4:10 (1011)", "D&C 61:2"]}

132.HTML

{"note1a": ["2Chr. 6:42"], "note18a": ["TGShame"], "note11a": ["Luke 1:55 (5455)", "Gal. 3:16"], "note17a": ["TGJesus Christ, Prophecies about"], "note11c": ["TGJesus Christ, Millennial Reign"], "note11b": ["TGJesus Christ, Davidic Descent of"], "note9a": ["TGPriesthood, Magnifying Callings within"], "note12d": ["1Kgs. 9:5"], "note9b": ["TGRighteousness"], "note2a": ["TGVow"], "note2b": ["Isa. 49:26"], "note15a": ["D&C 58:8 (811)"], "note16a": ["Isa. 61:10"], "note16b": ["D&C 109:80"], "note12a": ["1Kgs. 2:4"], "note12b": ["D&C 90:24"], "note12c": ["TGTestimony"], "note5a": ["1Chr. 22:7"], "note13a": ["TGZion"], "note17b": ["TGJesus Christ, Davidic Descent of"]}

25.HTML

{"note11a": ["Ps. 109:21"], "note8a": ["TGEducation"], "note6a": ["TGGod, Mercy of"], "note19a": ["TGCruelty"], "note4a": ["Ex. 33:13 (1213)", "Ps. 143:8 (512)", "John 14:6", "D&C 50:17 (1720)", "76:2 (15)", "79:2"], "note1a": ["Ps. 86:4", "143:8"], "note7b": ["Ps. 51:1"], "note7a": ["Job 13:26", "D&C 20:5", "58:42", "JSH 1:28 (2829)"], "note3a": ["TGWorthiness"], "note15a": ["Ps. 141:8", "D&C 4:5"], "note20a": ["TGShame"], "note15b": ["Ps. 9:15", "31:4"], "note13a": ["TGEarth, Destiny of"], "note9a": ["TGGuidance, Divine"], "note20b": ["TGTrust in God"], "note22a": ["Deut. 21:8", "Ps. 130:8", "D&C 84:99 (99100)"], "note18a": ["TGPain"], "note5a": ["TGGuidance, Divine", "Leadership"], "note5b": ["Gen. 49:18", "Prov. 20:22", "Isa. 40:31", "2Ne. 6:13 (7, 13)"], "note2a": ["TGFaith", "Trust in God"], "note2b": ["TGShame"], "note16a": ["TGGod, Mercy of"], "note14b": ["TGReverence"], "note14a": ["TGMysteries of Godliness"]}

128.HTML

{"note1a": ["TGRighteousness"], "note2d": ["TGHealth"], "note3a": ["TGMarriage, Husbands"], "note2a": ["2Ne. 13:10"], "note2b": ["Isa. 3:10"], "note2c": ["TGHappiness"], "note6a": ["Ps. 125:5"], "note5a": ["Ps. 134:3"], "note5b": ["TGZion"]}

10.HTML

{"note1a": ["TGDespair"], "note1b": ["Prov. 15:29", "Mosiah 11:24 (2324)", "D&C 101:7"], "note7b": ["TGFraud"], "note7a": ["TGCurse"], "note3a": ["TGBoast"], "note15a": ["Job 38:15", "D&C 1:19"], "note16a": ["TGKingdom of God, in Heaven"], "note12a": ["TGContrite Heart", "Humility"], "note14a": ["Ps. 68:5", "Hosea 14:3 (13)", "James 1:27", "3Ne. 24:5"], "note4b": ["Alma 30:53"], "note4a": ["Ps. 14:1"]}

113.HTML

{"note9a": ["TGBarren"], "note6a": ["TGJesus Christ, Condescension of"], "note9c": ["TGFamily"], "note9b": ["TGBirth Control", "Family, Love within", "Marriage, Motherhood"], "note7a": ["1Sam. 2:8 (110)"]}

13.HTML

{"note1a": ["TGDespair"], "note3a": ["Ps. 55:17 (1618)"], "note1b": ["D&C 121:1 (12)"], "note5a": ["1Sam. 2:1 (110)"], "note2a": ["TGSuffering"]}

26.HTML

{"note1a": ["TGTrust in God"], "note10a": ["TGBribe"], "note7a": ["1Chr. 16:9", "Ps. 9:1", "D&C 76:114"], "note2a": ["TGTest"], "note12a": ["TGAssembly for Worship"], "note6a": ["TGWash"], "note4a": ["Ps. 1:1", "Jer. 15:17", "Rom. 12:9", "D&C 38:42"], "note5a": ["TGHate"], "note5b": ["D&C 68:1"]}

123.HTML

{"note1a": ["Ps. 121:1", "Ezek. 18:6"], "note4a": ["Neh. 2:19", "Amos 6:1"]}

146.HTML

{"note9b": ["Prov. 15:25"], "note7a": ["TGOppression"], "note8b": ["Isa. 42:7", "Matt. 11:5"], "note3a": ["TGTrust Not in the Arm of Flesh"], "note8a": ["Matt. 9:30 (2731)"], "note9a": ["James 1:27 (2527)", "D&C 136:8 (79)"], "note10a": ["TGGod, Eternal Nature of"], "note5a": ["TGHappiness"], "note4a": ["TGBreath of Life"]}

65.HTML

{"note3a": ["D&C 1:32"], "note7a": ["Ps. 89:9", "Matt. 8:26 (2327)"], "note2a": ["2Ne. 2:10", "D&C 1:2"], "note2b": ["Ps. 86:9"], "note4a": ["Ps. 27:4", "Enos 1:27", "D&C 59:2"]}

62.HTML

{"note10b": ["Job 31:25", "Luke 12:15", "Alma 5:53 (5356)", "Hel. 12:2 (15)", "D&C 56:16 (1618)"], "note10c": ["Jacob 2:19 (1819)"], "note7b": ["TGRefuge"], "note7a": ["TGGlory"], "note9a": ["TGVanity"], "note8a": ["TGTrust in God"], "note2a": ["TGSalvation"], "note12a": ["Ps. 86:15"], "note6a": ["TGRock"], "note12b": ["TGGood Works", "Justice"], "note4a": ["TGCurse"]}

9.HTML

{"note1a": ["1Chr. 16:9 (89)", "Ps. 26:7", "D&C 76:114"], "note10b": ["TGTrust in God"], "note9b": ["TGOppression"], "note11a": ["TGPreaching"], "note7a": ["TGJudgment, the Last"], "note8b": ["TGRighteousness"], "note17b": ["Ps. 50:22"], "note8a": ["TGJesus Christ, Judge"], "note15a": ["Ps. 25:15", "31:4", "57:6"], "note9a": ["TGRefuge"], "note10a": ["Acts 4:12 (1012)"], "note16a": ["Ps. 7:16"], "note17a": ["TGHell"], "note12b": ["Gen. 9:5"], "note12c": ["TGHumility"], "note5a": ["Deut. 9:14 (1314)", "Mosiah 26:36"], "note14a": ["1Sam. 2:1 (110)"]}

74.HTML

{"note1a": ["1Ne. 19:16 (1516)", "D&C 35:25", "JSM 1:27 (27, 37)"], "note9b": ["1Sam. 3:1", "Lam. 2:9"], "note11a": ["Lam. 2:3"], "note9a": ["Amos 8:11 (1112)"], "note20a": ["Ps. 106:45", "D&C 1:22", "49:9"], "note8a": ["Ps. 83:4"], "note2a": ["Ex. 15:16"], "note20b": ["TGCruelty"], "note15a": ["Ex. 17:6"], "note15b": ["Josh. 3:17 (1417)", "Ps. 66:6"], "note10a": ["D&C 105:15", "112:26 (2426)"], "note17a": ["TGNature, Earth"], "note12a": ["Ps. 44:4", "Alma 5:50"], "note13a": ["Isa. 27:1", "51:9"], "note4a": ["TGEnsign"]}

52.HTML

{"note6a": ["TGLaughter"], "note8a": ["Ps. 92:12 (1213)", "Jer. 11:16", "D&C 35:24"], "note5a": ["Prov. 2:22", "Mosiah 16:2", "D&C 63:54"], "note2a": ["Ps. 57:4", "2Ne. 13:8"]}

121.HTML

{"note1a": ["Ps. 123:1"], "note7a": ["Ps. 97:10", "D&C 45:46"], "note3b": ["Ps. 127:1"], "note3a": ["Ps. 66:9"], "note8a": ["Deut. 28:6"], "note2a": ["Ps. 124:8"], "note6a": ["Isa. 49:10", "Rev. 7:16"], "note5b": ["Ps. 91:1"]}

47.HTML

{"note7a": ["Zech. 14:9"], "note8b": ["Rev. 7:15", "D&C 88:13"], "note8c": ["TGKingdom of God, in Heaven"], "note3a": ["Ps. 18:47"], "note2a": ["Deut. 7:21", "D&C 1:9 (910)"], "note9a": ["Ps. 89:18"]}

70.HTML

{"note5a": ["Ps. 141:1"]}

3.HTML

{"note1a": ["2Sam. 15:14", "17:27 (2729)"], "note3a": ["TGProtection, Divine"], "note8a": ["TGSalvation"]}

39.HTML

{"note1a": ["James 3:2 (113)"], "note1b": ["Ps. 141:3"], "note11b": ["TGVanity"], "note8b": ["TGTransgress"], "note3a": ["Jer. 20:9"], "note8a": ["TGDeliver"], "note12a": ["TGStranger"], "note6a": ["TGTreasure"], "note12b": ["Gen. 26:3"], "note5a": ["Isa. 40:15", "Dan. 4:35"], "note4a": ["Ps. 119:84"]}

