**************************************** . ****************************************
1.HTML

{"note11a": ["Moses 8:12"], "note11b": ["Dan. 3:18 (123)"], "note23a": ["Gen. 10:6", "Ps. 105:23"], "note31c": ["TGBook of Remembrance"], "note27a": ["TGPriesthood, Qualifying for"], "note27b": ["TGUnrighteous Dominion"], "note21b": ["Ps. 78:51", "Moses 8:12"], "note21c": ["Ps. 105:23", "Moses 7:6 (68)"], "note21a": ["Gen. 10:6 (68)", "Abr. 1:25 (2025)"], "note6a": ["TGHardheartedness"], "note6b": ["Alma 40:13"], "note6c": ["Abr., fac.1"], "note4b": ["D&C 84:14 (617)"], "note19c": ["Ps. 48:14", "D&C 20:12"], "note4a": ["TGBirthright"], "note1a": ["Abr. 1:20 (2030)", "2:4 (1, 4)"], "note28a": ["Moses 6:5", "TGScriptures, Writing of"], "note1c": ["Acts 7:3 (24)"], "note1b": ["Gen. 11:26 (1026)", "Hel. 8:18 (1619)"], "note7b": ["Abr. 1:15, 17, 30"], "note7a": ["TGHeathen"], "note3c": ["Moses 1:34", "TGAdam"], "note3b": ["D&C 68:17", "TGFirstborn"], "note3a": ["D&C 84:14 (617)", "TGAuthority", "Patriarch"], "note15a": ["Mosiah 9:18 (1718)", "D&C 35:3"], "note15b": ["Abr. 2:13", "3:20"], "note17b": ["1Ne. 13:34", "D&C 124:8"], "note17a": ["TGWorship"], "note19b": ["Gen. 12:3 (13)", "Abr. 2:6 (611)"], "note29a": ["Abr. 2:1, 17", "TGFamine"], "note10a": ["TGFalse Priesthoods"], "note20a": ["Gen. 11:28", "Abr. 1:1", "2:4 (14)"], "note22a": ["Gen. 10:15 (620)", "Moses 7:7 (68)"], "note25a": ["TGGovernments"], "note26b": ["TGBlessing"], "note26a": ["TGOrder"], "note5a": ["Gen. 12:1"], "note5c": ["TGHeathen"], "note5b": ["Josh. 24:14"], "note30a": ["Abr. 1:7 (7, 12)"], "note2d": ["Gen. 12:2", "17:6", "18:18"], "note2e": ["Gen. 13:4"], "note2f": ["TGHigh Priest, Melchizedek Priesthood", "Priesthood, History of", "Priesthood, Melchizedek"], "note2a": ["TGHappiness", "Priesthood, Qualifying for", "Rest", "Righteousness"], "note2b": ["TGGod, the Standard of Righteousness"], "note2c": ["Prov. 19:2", "D&C 42:61"], "note16d": ["TGPromised Lands"], "note31a": ["TGRecord Keeping", "Scriptures, Preservation of"], "note31b": ["Abr. 3:2 (121)", "TGAstronomy"], "note16a": ["1:1617", "2:3, 6, 14, 17"], "note16b": ["Jer. 16:21", "TGJesus Christ, Jehovah"], "note16c": ["Gen. 12:1"], "note19a": ["Moses 8:19"]}

FAC-1.HTML

{}

2.HTML

{"note11d": ["TGBirthright", "Israel, Mission of", "Priesthood, Melchizedek"], "note11a": ["TGIsrael, Blessings of"], "note11c": ["Isa. 49:3", "61:9"], "note11b": ["TGCurse"], "note8b": ["TGGod, Foreknowledge of", "God, Omniscience of"], "note8a": ["Jer. 16:21"], "note6a": ["Gen. 17:1", "48:3", "Ex. 6:23", "D&C 107:54", "Abr. 3:11", "TGGod, Manifestations of", "Jesus Christ, Appearances, Antemortal"], "note6b": ["TGDelegation of Responsibility"], "note6c": ["Gen. 12:3", "Abr. 1:19"], "note6d": ["Gen. 13:15", "17:8", "48:4", "Ex. 33:1", "1Ne. 10:3", "Abr. 2:19", "TGIsrael, Land of"], "note4a": ["Neh. 9:7", "Abr. 1:1, 20, 2930"], "note1a": ["Abr. 1:29"], "note1c": ["Gen. 11:24 (2426)", "1Chr. 1:26"], "note1b": ["Gen. 11:28"], "note7c": ["2Kgs. 2:11", "Isa. 66:15 (1516)"], "note7b": ["Lam. 2:1", "1Ne. 17:39", "D&C 38:17", "Moses 6:9, 44"], "note7a": ["Moses 6:42"], "note4b": ["Gen. 11:31 (3132)"], "note3a": ["Gen. 12:1", "20:13", "Acts 7:2 (18, 16)"], "note15a": ["Gen. 12:5", "TGConversion"], "note20a": ["Gen. 28:19"], "note17b": ["Abr. 1:29", "2:1"], "note17a": ["Gen. 12:7 (78)", "1Ne. 2:7"], "note13a": ["Abr. 1:15 (1517)"], "note19b": ["Gen. 11:31 (2731)", "13:15", "17:8 (127)", "Ex. 3:8 (110)", "Num. 34:2 (129)", "TGPromised Lands"], "note20c": ["Gen. 13:4"], "note10b": ["Acts 15:14", "Gal. 3:8 (79)"], "note10c": ["Gen. 12:2 (23)", "Isa. 44:5"], "note10a": ["TGIsrael, Blessings of"], "note10d": ["Gen. 13:16 (1416)", "Rom. 4:11", "Gal. 3:29 (2629)", "2Ne. 30:2"], "note10e": ["TGPatriarch"], "note9a": ["2Sam. 7:23", "Neh. 9:23", "Isa. 9:3", "26:15", "Acts 13:26", "Abr. 3:14"], "note9c": ["D&C 84:17 (1719)", "Moses 6:7"], "note9b": ["Gen. 12:2 (13)", "49:26", "Ps. 105:10 (810)", "1Ne. 17:40", "2Ne. 29:14", "3Ne. 20:27", "Morm. 5:20", "TGSeed of Abraham"], "note20d": ["Gen. 12:8"], "note22a": ["Gen. 12:11"], "note25a": ["Gen. 12:13 (920)", "20:12"], "note18b": ["TGSacrifice"], "note18a": ["Gen. 12:6"], "note5a": ["Josh. 24:2 (23)"], "note20b": ["Gen. 13:3"], "note2a": ["Gen. 11:29", "12:5"], "note2b": ["Gen. 11:27", "22:23 (2024)"], "note2c": ["Gen. 20:12 (12, 16)"], "note16a": ["TGEternity"], "note16b": ["TGRock"], "note19a": ["D&C 107:54 (5354)"], "note12a": ["Jer. 29:13", "D&C 88:63"], "note14a": ["Gen. 12:4"]}

FAC-3.HTML

{}

4.HTML

{"note11a": ["Gen. 1:11 (1112)", "Moses 2:11 (1112)"], "note8a": ["Gen. 1:8"], "note27a": ["Gen. 1:26", "Abr. 5:7"], "note27b": ["TGGod, Body of, Corporeal Nature"], "note21a": ["Gen. 1:21", "Moses 2:21"], "note6a": ["Gen. 1:6"], "note4a": ["Gen. 1:4", "Moses 2:4"], "note1a": ["Gen. 1:1", "Moses 2:1", "TGJesus Christ, Creator"], "note1c": ["Moses 1:37 (3638)"], "note1b": ["Prov. 3:19 (1920)"], "note17a": ["TGDarkness, Physical"], "note29a": ["Gen. 1:29 (2930)"], "note10a": ["Gen. 1:10", "Abr. 4:22"], "note9a": ["Amos 9:6", "Moses 2:7 (69)"], "note9b": ["Gen. 1:9"], "note22a": ["Abr. 4:10"], "note26c": ["Moses 6:9 (810)"], "note26b": ["TGMan, Physical Creation of"], "note26a": ["TGCounsel"], "note18a": ["TGOrder"], "note5a": ["Gen. 1:5"], "note2a": ["TGDarkness, Physical"], "note2b": ["Gen. 1:2", "Moses 2:2"], "note31a": ["Ex. 31:17", "Mosiah 13:19"], "note16a": ["Gen. 1:16", "D&C 76:71 (7071)", "88:45"], "note12a": ["Ex. 9:29", "D&C 14:9", "15:2"], "note14a": ["D&C 88:7 (711)"]}

5.HTML

{"note8a": ["TGEden"], "note21b": ["Enos 1:21", "Ether 9:18"], "note21c": ["Abr. 5:14"], "note21a": ["TGLanguage"], "note19a": ["TGShame"], "note4a": ["Neh. 9:6"], "note1a": ["D&C 38:1", "45:1"], "note7d": ["TGSoul"], "note7c": ["Gen. 2:7", "2Ne. 9:26", "D&C 77:2", "93:33", "TGMan, Antemortal Existence of", "Spirit Body"], "note7b": ["Moses 4:25 (2529)", "6:59"], "note7a": ["Abr. 4:27 (2631)"], "note3c": ["Mosiah 13:19 (1619)", "D&C 77:12"], "note3b": ["Ex. 31:15 (1516)", "Mosiah 13:18 (1619)"], "note3a": ["Ex. 20:8 (811)"], "note9a": ["1Ne. 11:25", "Moses 4:28, 31"], "note17a": ["Jacob 2:21"], "note13b": ["Abr. 3:3 (24)"], "note13a": ["Abr. 3:4, 10", "TGTime"], "note20a": ["TGAdam"], "note18b": ["TGDivorce", "Marriage, Celestial"], "note18a": ["D&C 42:22", "49:15 (1516)"], "note5a": ["TGSpirit Creation"], "note2a": ["TGRest"], "note2b": ["TGSabbath"], "note16a": ["TGWoman"]}

FAC-2.HTML

{}

3.HTML

{"note11a": ["Gen. 17:1", "Abr. 2:6 (6, 8, 19)", "TGGod, Access to", "God, Manifestations of", "God, Privilege of Seeing"], "note23a": ["Isa. 49:1 (15)", "Jer. 1:5", "Moses 1:25", "3:5", "TGElection", "Foreordination"], "note27a": ["TGGod the Father, Elohim"], "note27b": ["Moses 7:39"], "note27c": ["Moses 4:1 (12)"], "note21b": ["Job 12:13 (725)", "2Ne. 9:8"], "note21c": ["TGGod, Perfection of", "Kingdom of God, in Heaven"], "note21a": ["D&C 88:47 (4547)", "Moses 1:27 (2728)", "7:23"], "note25b": ["TGObedience"], "note6a": ["Abr. 3:16 (1619)"], "note4d": ["TGTime"], "note25a": ["D&C 98:14 (1214)", "124:55", "TGAgency", "Salvation, Plan of", "Test"], "note19a": ["Isa. 55:9 (89)", "TGGod, Intelligence of", "God, Omniscience of", "Intelligence"], "note4c": ["Ps. 90:4", "2Pet. 3:8"], "note4a": ["Dan. 2:21"], "note1a": ["Ex. 28:30", "Mosiah 8:13 (1319)", "28:13 (1316)", "JSH 1:35", "TGUrim and Thummim"], "note4b": ["Abr. 5:13"], "note3a": ["Abr., fac.2, figs.15", "Abr. 3:16", "5:13", "TGAstronomy"], "note15a": ["TGGuidance, Divine"], "note20a": ["Abr. 1:15"], "note17a": ["Job 9:4 (412)"], "note9a": ["TGAstronomy"], "note9b": ["D&C 77:3", "88:42 (3742)", "TGOrder"], "note22b": ["D&C 138:55"], "note22a": ["TGCouncil in Heaven", "Intelligence", "Man, Antemortal Existence of", "Man, a Spirit Child of Heavenly Father", "Spirit Creation"], "note24a": ["TGJesus Christ, Firstborn"], "note26b": ["Jude 1:6"], "note26a": ["TGDependability"], "note26d": ["Titus 1:2", "TGGlory", "Reward"], "note18a": ["TGSpirit Body", "Spirit Creation"], "note5a": ["v.7"], "note24c": ["TGEarth, Purpose of"], "note24b": ["TGJesus Christ, Creator"], "note26c": ["TGMortality"], "note2a": ["Moses 1:35 (3537)", "7:36", "Abr. 1:31"], "note28a": ["TGDevil"], "note28b": ["TGSons of Perdition"], "note16a": ["Abr. 3:6 (6, 8)"], "note16b": ["Abr. 3:3"], "note27d": ["TGJesus Christ, Authority of", "Jesus Christ, Foreordained", "Jesus Christ, Messenger of the Covenant", "Jesus Christ, Messiah", "Jesus Christ, Mission of"], "note14b": ["Gen. 13:16", "D&C 132:30"], "note14c": ["Gen. 22:17", "Hosea 1:10"], "note14a": ["Abr. 2:9"]}

