**************************************** . ****************************************
1.HTML

{"note11a": ["Gen. 4:5 (115)", "1Jn. 3:12"], "note11c": ["Num. 16"], "note11b": ["2Pet. 2:18"], "note8b": ["TGPollution"], "note23a": ["Amos 4:11", "Mal. 4:1"], "note23b": ["D&C 36:6"], "note6a": ["TGAngels", "Death, Spiritual, First", "Devil", "Sons of Perdition", "Spirits, Evil or Unclean"], "note4d": ["TGApostasy of the Early Christian Church"], "note6c": ["Abr. 3:26 (2428)"], "note6d": ["TGJudgment, the Last"], "note6b": ["TGMan, Antemortal Existence of"], "note4a": ["2Pet. 2:19", "D&C 29:45", "JSH 1:19"], "note7e": ["D&C 76:105", "TGPunish"], "note1b": ["TGServant"], "note7c": ["TGHomosexual Behavior"], "note7b": ["TGFornication"], "note7a": ["Gen. 19:24", "2Pet. 2:6 (19)"], "note3c": ["TGZeal"], "note3b": ["2Ne. 2:4", "26:33", "AofF 1:3"], "note3a": ["TGScriptures, Lost"], "note3d": ["Philip. 1:27", "D&C 112:5"], "note15a": ["TGJesus Christ, Authority of"], "note20a": ["D&C 21:2"], "note15c": ["Ps. 139:20 (1724)"], "note15b": ["TGAccountability", "Jesus Christ, Judge"], "note5c": ["TGUnbelief"], "note13a": ["TGAstronomy"], "note19b": ["TGHoly Ghost, Loss of"], "note9a": ["TGAdam"], "note9c": ["TGTranslated Beings"], "note9b": ["TGAngels"], "note22a": ["TGCompassion"], "note24a": ["Rev. 14:4 (25)"], "note7d": ["TGExample"], "note18b": ["TGLast Days"], "note18c": ["TGWalking in Darkness"], "note18a": ["TGApostasy of Individuals", "Mocking"], "note5a": ["1Cor. 10:5 (5, 9)"], "note4b": ["TGGodliness"], "note5b": ["Deut. 1:35"], "note16a": ["TGMurmuring"], "note16b": ["TGLust"], "note16c": ["2Pet. 2:18 (1019)"], "note19a": ["Deut. 13:13", "Judg. 20:13"], "note12a": ["2Pet. 2:17"], "note14b": ["1Thes. 4:17 (1318)", "Moses 7:65 (6266)", "TGJesus Christ, Second Coming"], "note14c": ["TGSaints"], "note14a": ["Gen. 5:23", "Heb. 11:5 (56)", "Moses 6:27 (2765)", "TGScriptures, Lost"]}

